
                    DIPELM (2011) 

                    Dipole matrix elements and photoionization observables 


 The dipole component order is x y z
 PW DIPOLE FILE NO.=        142
 KEYDIP=    24 NSET_PWD_DIPOLES=     1
 TITLE=  Water photo-ionization                                     20190326  155700.318
 MGVN=     1 STOT=     1 GUTOT=     2 NCHAN=    19 NBOUND=     1 NO_SCAT_ENERGIES=   700
 DIP_COMP_PRESENT=     0    0    1
 TARGET STATE ENERGY 1  =         -0.75651D+02
 BOUND STATE ENERGY   1 =         -0.76088D+02
 PW DIPOLE FILE NO.=        143
 KEYDIP=    24 NSET_PWD_DIPOLES=     1
 TITLE=  Water photo-ionization                                     20190326  155710.352
 MGVN=     2 STOT=     1 GUTOT=     2 NCHAN=    19 NBOUND=     1 NO_SCAT_ENERGIES=   700
 DIP_COMP_PRESENT=     1    0    0
 TARGET STATE ENERGY 1  =         -0.75651D+02
 BOUND STATE ENERGY   1 =         -0.76088D+02
 PW DIPOLE FILE NO.=        144
 KEYDIP=    24 NSET_PWD_DIPOLES=     1
 TITLE=  Water photo-ionization                                     20190326  155649.092
 MGVN=     0 STOT=     1 GUTOT=     2 NCHAN=    21 NBOUND=     1 NO_SCAT_ENERGIES=   700
 DIP_COMP_PRESENT=     0    1    0
 TARGET STATE ENERGY 1  =         -0.75651D+02
 BOUND STATE ENERGY   1 =         -0.76088D+02
  Target state energies
    1         0.00000D+00
    2         0.92569D-01
    3         0.25122D+00
 NO. OF ORIENTATIONS =                    1
  Calculated Ionization Potential is  0.43685599999999170      a.u.   11.887288809310688      eV
  Calculated Ionization Potential is  0.52942470499999172      a.u.   14.406175882027792      eV
  Calculated Ionization Potential is  0.68807648999999171      a.u.   18.723249673866981      eV
