+-------------------------------------------------------------------------+
|              _              |                                           |
| || || ||//  | \          |  | University College London (C) 1994 - 2019 |
| || || ||    | / |/\/\ /\ |  | Open University           (C) 2007 - 2019 |
| \\_// ||\\  | \ | | | \/ |  |                                           |
|                             |                                           |
+-------------------------------------------------------------------------+
| Last revision: 2.0.2                                                    |
| Last author:   Jimena Gorfinkiel                                        |
| Last date:     Tue Mar 12 13:22:01 2019 +0000                           |
+-------------------------------------------------------------------------+


 PROGRAM SCATCI (19 Oct 2009) : 

                         DATE = 20190412

                         TIME = 110359.539


 CONGEN: e + H2O2 - singlet B                                                                                                    
 SCATCI: e + H2O2 - singlet B                                                                                                    
 MGVN =         1     S    =  0.0
 NELT =        18     SZ   =  0.0
 IDIAG=         2     R    =  0.0
 THRES=   0.1D-09     NSYM =    2
 MEGUL= 71, NOCSF=        14
 NPFLG         0   0   0   0   0   0
 NOB(i)=                   182
 setting NOBE(i)=                   182
 NOB(i)=                   166
 setting NOBE(i)=                   166
 NOB  =       182 166
 NOB0 =         5   4
 NOBC =         5   4
 NDTRF=         1   2   3   4   5   6   7   8   9 365 366 367 368 369 370 371 372 374
 NSRB=  696    LNDOF=       128    LCDOF=        28
 nfte =   81        nfti =    16       lembf=  5000       iodr =   1
 MOLECULE SYMMETRY CASE,  SYMTYP = 2

 Prototype CSF option requested

 CI target option requested,
 Vectors to be read from unit NFTG = 26
 Phases for target vectors read in from CONGEN

 Number of target symmetries in expansion,   NTGSYM =    2
 Number of continuum orbitals for each state, NOTGT =  162  177
 Number of CI components for each state,      NCTGT =         4         3
 Number of target states of each symmetry,   NUMTGT =    1    1
 Continuum M projection  for each state,      MCONT =    1    0

 Diagonalisation of Hamiltonian matrix requested
 SCATCI will expand NOCSF =     14 prototype CSFs
               into MXCSF =   1179 actual configurations
               and  MOCSF =    339 dimension final Hamiltonian

 Number of last continuum CSF, NCONT =     14
     ENERGY EXPRESSIONS COMPUTED FOR MOLECULE SYMMETRY CASE - SYMTYP=  2
 All IIII blocks of integrals
                     1                     0                     0
                     0                     0
                     2                     1                     1
                     1                     1
 All IJIJ blocks
                     3                     1                     0
                     1                     0
 The IIJJ blocks of integrals
                     4                     1                     1
                     0                     0
 NOBE =       182       166
 MBAS =         0         6
 NBASH=         1     16654     30515
   Read wavefunctions from CONGEN and load integrals
                   I         N         G         M         S      MPOS      MCON
                   1         1         0         0         0         0         1
                   2         1         0         0         1         0         1
                   3         2         0         0         0         0         1
                   4         2         0         0         1         0         1
                   5         3         0         0         0         0         1
                   6         3         0         0         1         0         1
                   7         4         0         0         0         0         1
                   8         4         0         0         1         0         1
                   9         5         0         0         0         0         1
                  10         5         0         0         1         0         1
                  11         6         0         0         0         0         0
                  12         6         0         0         1         0         0
                  13         7         0         0         0         0         0
                  14         7         0         0         1         0         0
                  15         8         0         0         0         0         0
                  16         8         0         0         1         0         0
                  17         9         0         0         0         0         0
                  18         9         0         0         1         0         0
                  19        10         0         0         0         0         0
                  20        10         0         0         1         0         0
                  21        11         0         0         0         0         0
                  22        11         0         0         1         0         0
                  23        12         0         0         0         0         0
                  24        12         0         0         1         0         0
                  25        13         0         0         0         0         0
                  26        13         0         0         1         0         0
                  27        14         0         0         0         0         0
                  28        14         0         0         1         0         0
                  29        15         0         0         0         0         0
                  30        15         0         0         1         0         0
                  31        16         0         0         0         0         0
                  32        16         0         0         1         0         0
                  33        17         0         0         0         0         0
                  34        17         0         0         1         0         0
                  35        18         0         0         0         0         0
                  36        18         0         0         1         0         0
                  37        19         0         0         0         0         0
                  38        19         0         0         1         0         0
                  39        20         0         0         0         0         0
                  40        20         0         0         1         0         0
                  41        21         0         0         0         0         0
                  42        21         0         0         1         0         0
                  43        22         0         0         0         0         0
                  44        22         0         0         1         0         0
                  45        23         0         0         0         0         0
                  46        23         0         0         1         0         0
                  47        24         0         0         0         0         0
                  48        24         0         0         1         0         0
                  49        25         0         0         0         0         0
                  50        25         0         0         1         0         0
                  51        26         0         0         0         0         0
                  52        26         0         0         1         0         0
                  53        27         0         0         0         0         0
                  54        27         0         0         1         0         0
                  55        28         0         0         0         0         0
                  56        28         0         0         1         0         0
                  57        29         0         0         0         0         0
                  58        29         0         0         1         0         0
                  59        30         0         0         0         0         0
                  60        30         0         0         1         0         0
                  61        31         0         0         0         0         0
                  62        31         0         0         1         0         0
                  63        32         0         0         0         0         0
                  64        32         0         0         1         0         0
                  65        33         0         0         0         0         0
                  66        33         0         0         1         0         0
                  67        34         0         0         0         0         0
                  68        34         0         0         1         0         0
                  69        35         0         0         0         0         0
                  70        35         0         0         1         0         0
                  71        36         0         0         0         0         0
                  72        36         0         0         1         0         0
                  73        37         0         0         0         0         0
                  74        37         0         0         1         0         0
                  75        38         0         0         0         0         0
                  76        38         0         0         1         0         0
                  77        39         0         0         0         0         0
                  78        39         0         0         1         0         0
                  79        40         0         0         0         0         0
                  80        40         0         0         1         0         0
                  81        41         0         0         0         0         0
                  82        41         0         0         1         0         0
                  83        42         0         0         0         0         0
                  84        42         0         0         1         0         0
                  85        43         0         0         0         0         0
                  86        43         0         0         1         0         0
                  87        44         0         0         0         0         0
                  88        44         0         0         1         0         0
                  89        45         0         0         0         0         0
                  90        45         0         0         1         0         0
                  91        46         0         0         0         0         0
                  92        46         0         0         1         0         0
                  93        47         0         0         0         0         0
                  94        47         0         0         1         0         0
                  95        48         0         0         0         0         0
                  96        48         0         0         1         0         0
                  97        49         0         0         0         0         0
                  98        49         0         0         1         0         0
                  99        50         0         0         0         0         0
                 100        50         0         0         1         0         0
                 101        51         0         0         0         0         0
                 102        51         0         0         1         0         0
                 103        52         0         0         0         0         0
                 104        52         0         0         1         0         0
                 105        53         0         0         0         0         0
                 106        53         0         0         1         0         0
                 107        54         0         0         0         0         0
                 108        54         0         0         1         0         0
                 109        55         0         0         0         0         0
                 110        55         0         0         1         0         0
                 111        56         0         0         0         0         0
                 112        56         0         0         1         0         0
                 113        57         0         0         0         0         0
                 114        57         0         0         1         0         0
                 115        58         0         0         0         0         0
                 116        58         0         0         1         0         0
                 117        59         0         0         0         0         0
                 118        59         0         0         1         0         0
                 119        60         0         0         0         0         0
                 120        60         0         0         1         0         0
                 121        61         0         0         0         0         0
                 122        61         0         0         1         0         0
                 123        62         0         0         0         0         0
                 124        62         0         0         1         0         0
                 125        63         0         0         0         0         0
                 126        63         0         0         1         0         0
                 127        64         0         0         0         0         0
                 128        64         0         0         1         0         0
                 129        65         0         0         0         0         0
                 130        65         0         0         1         0         0
                 131        66         0         0         0         0         0
                 132        66         0         0         1         0         0
                 133        67         0         0         0         0         0
                 134        67         0         0         1         0         0
                 135        68         0         0         0         0         0
                 136        68         0         0         1         0         0
                 137        69         0         0         0         0         0
                 138        69         0         0         1         0         0
                 139        70         0         0         0         0         0
                 140        70         0         0         1         0         0
                 141        71         0         0         0         0         0
                 142        71         0         0         1         0         0
                 143        72         0         0         0         0         0
                 144        72         0         0         1         0         0
                 145        73         0         0         0         0         0
                 146        73         0         0         1         0         0
                 147        74         0         0         0         0         0
                 148        74         0         0         1         0         0
                 149        75         0         0         0         0         0
                 150        75         0         0         1         0         0
                 151        76         0         0         0         0         0
                 152        76         0         0         1         0         0
                 153        77         0         0         0         0         0
                 154        77         0         0         1         0         0
                 155        78         0         0         0         0         0
                 156        78         0         0         1         0         0
                 157        79         0         0         0         0         0
                 158        79         0         0         1         0         0
                 159        80         0         0         0         0         0
                 160        80         0         0         1         0         0
                 161        81         0         0         0         0         0
                 162        81         0         0         1         0         0
                 163        82         0         0         0         0         0
                 164        82         0         0         1         0         0
                 165        83         0         0         0         0         0
                 166        83         0         0         1         0         0
                 167        84         0         0         0         0         0
                 168        84         0         0         1         0         0
                 169        85         0         0         0         0         0
                 170        85         0         0         1         0         0
                 171        86         0         0         0         0         0
                 172        86         0         0         1         0         0
                 173        87         0         0         0         0         0
                 174        87         0         0         1         0         0
                 175        88         0         0         0         0         0
                 176        88         0         0         1         0         0
                 177        89         0         0         0         0         0
                 178        89         0         0         1         0         0
                 179        90         0         0         0         0         0
                 180        90         0         0         1         0         0
                 181        91         0         0         0         0         0
                 182        91         0         0         1         0         0
                 183        92         0         0         0         0         0
                 184        92         0         0         1         0         0
                 185        93         0         0         0         0         0
                 186        93         0         0         1         0         0
                 187        94         0         0         0         0         0
                 188        94         0         0         1         0         0
                 189        95         0         0         0         0         0
                 190        95         0         0         1         0         0
                 191        96         0         0         0         0         0
                 192        96         0         0         1         0         0
                 193        97         0         0         0         0         0
                 194        97         0         0         1         0         0
                 195        98         0         0         0         0         0
                 196        98         0         0         1         0         0
                 197        99         0         0         0         0         0
                 198        99         0         0         1         0         0
                 199       100         0         0         0         0         0
                 200       100         0         0         1         0         0
                 201       101         0         0         0         0         0
                 202       101         0         0         1         0         0
                 203       102         0         0         0         0         0
                 204       102         0         0         1         0         0
                 205       103         0         0         0         0         0
                 206       103         0         0         1         0         0
                 207       104         0         0         0         0         0
                 208       104         0         0         1         0         0
                 209       105         0         0         0         0         0
                 210       105         0         0         1         0         0
                 211       106         0         0         0         0         0
                 212       106         0         0         1         0         0
                 213       107         0         0         0         0         0
                 214       107         0         0         1         0         0
                 215       108         0         0         0         0         0
                 216       108         0         0         1         0         0
                 217       109         0         0         0         0         0
                 218       109         0         0         1         0         0
                 219       110         0         0         0         0         0
                 220       110         0         0         1         0         0
                 221       111         0         0         0         0         0
                 222       111         0         0         1         0         0
                 223       112         0         0         0         0         0
                 224       112         0         0         1         0         0
                 225       113         0         0         0         0         0
                 226       113         0         0         1         0         0
                 227       114         0         0         0         0         0
                 228       114         0         0         1         0         0
                 229       115         0         0         0         0         0
                 230       115         0         0         1         0         0
                 231       116         0         0         0         0         0
                 232       116         0         0         1         0         0
                 233       117         0         0         0         0         0
                 234       117         0         0         1         0         0
                 235       118         0         0         0         0         0
                 236       118         0         0         1         0         0
                 237       119         0         0         0         0         0
                 238       119         0         0         1         0         0
                 239       120         0         0         0         0         0
                 240       120         0         0         1         0         0
                 241       121         0         0         0         0         0
                 242       121         0         0         1         0         0
                 243       122         0         0         0         0         0
                 244       122         0         0         1         0         0
                 245       123         0         0         0         0         0
                 246       123         0         0         1         0         0
                 247       124         0         0         0         0         0
                 248       124         0         0         1         0         0
                 249       125         0         0         0         0         0
                 250       125         0         0         1         0         0
                 251       126         0         0         0         0         0
                 252       126         0         0         1         0         0
                 253       127         0         0         0         0         0
                 254       127         0         0         1         0         0
                 255       128         0         0         0         0         0
                 256       128         0         0         1         0         0
                 257       129         0         0         0         0         0
                 258       129         0         0         1         0         0
                 259       130         0         0         0         0         0
                 260       130         0         0         1         0         0
                 261       131         0         0         0         0         0
                 262       131         0         0         1         0         0
                 263       132         0         0         0         0         0
                 264       132         0         0         1         0         0
                 265       133         0         0         0         0         0
                 266       133         0         0         1         0         0
                 267       134         0         0         0         0         0
                 268       134         0         0         1         0         0
                 269       135         0         0         0         0         0
                 270       135         0         0         1         0         0
                 271       136         0         0         0         0         0
                 272       136         0         0         1         0         0
                 273       137         0         0         0         0         0
                 274       137         0         0         1         0         0
                 275       138         0         0         0         0         0
                 276       138         0         0         1         0         0
                 277       139         0         0         0         0         0
                 278       139         0         0         1         0         0
                 279       140         0         0         0         0         0
                 280       140         0         0         1         0         0
                 281       141         0         0         0         0         0
                 282       141         0         0         1         0         0
                 283       142         0         0         0         0         0
                 284       142         0         0         1         0         0
                 285       143         0         0         0         0         0
                 286       143         0         0         1         0         0
                 287       144         0         0         0         0         0
                 288       144         0         0         1         0         0
                 289       145         0         0         0         0         0
                 290       145         0         0         1         0         0
                 291       146         0         0         0         0         0
                 292       146         0         0         1         0         0
                 293       147         0         0         0         0         0
                 294       147         0         0         1         0         0
                 295       148         0         0         0         0         0
                 296       148         0         0         1         0         0
                 297       149         0         0         0         0         0
                 298       149         0         0         1         0         0
                 299       150         0         0         0         0         0
                 300       150         0         0         1         0         0
                 301       151         0         0         0         0         0
                 302       151         0         0         1         0         0
                 303       152         0         0         0         0         0
                 304       152         0         0         1         0         0
                 305       153         0         0         0         0         0
                 306       153         0         0         1         0         0
                 307       154         0         0         0         0         0
                 308       154         0         0         1         0         0
                 309       155         0         0         0         0         0
                 310       155         0         0         1         0         0
                 311       156         0         0         0         0         0
                 312       156         0         0         1         0         0
                 313       157         0         0         0         0         0
                 314       157         0         0         1         0         0
                 315       158         0         0         0         0         0
                 316       158         0         0         1         0         0
                 317       159         0         0         0         0         0
                 318       159         0         0         1         0         0
                 319       160         0         0         0         0         0
                 320       160         0         0         1         0         0
                 321       161         0         0         0         0         0
                 322       161         0         0         1         0         0
                 323       162         0         0         0         0         0
                 324       162         0         0         1         0         0
                 325       163         0         0         0         0         0
                 326       163         0         0         1         0         0
                 327       164         0         0         0         0         0
                 328       164         0         0         1         0         0
                 329       165         0         0         0         0         0
                 330       165         0         0         1         0         0
                 331       166         0         0         0         0         0
                 332       166         0         0         1         0         0
                 333       167         0         0         0         0         0
                 334       167         0         0         1         0         0
                 335       168         0         0         0         0         0
                 336       168         0         0         1         0         0
                 337       169         0         0         0         0         0
                 338       169         0         0         1         0         0
                 339       170         0         0         0         0         0
                 340       170         0         0         1         0         0
                 341       171         0         0         0         0         0
                 342       171         0         0         1         0         0
                 343       172         0         0         0         0         0
                 344       172         0         0         1         0         0
                 345       173         0         0         0         0         0
                 346       173         0         0         1         0         0
                 347       174         0         0         0         0         0
                 348       174         0         0         1         0         0
                 349       175         0         0         0         0         0
                 350       175         0         0         1         0         0
                 351       176         0         0         0         0         0
                 352       176         0         0         1         0         0
                 353       177         0         0         0         0         0
                 354       177         0         0         1         0         0
                 355       178         0         0         0         0         0
                 356       178         0         0         1         0         0
                 357       179         0         0         0         0         0
                 358       179         0         0         1         0         0
                 359       180         0         0         0         0         0
                 360       180         0         0         1         0         0
                 361       181         0         0         0         0         0
                 362       181         0         0         1         0         0
                 363       182         0         0         0         0         0
                 364       182         0         0         1         0         0
                 365       183         0         1         0         0         1
                 366       183         0         1         1         0         1
                 367       184         0         1         0         0         1
                 368       184         0         1         1         0         1
                 369       185         0         1         0         0         1
                 370       185         0         1         1         0         1
                 371       186         0         1         0         0         1
                 372       186         0         1         1         0         1
                 373       187         0         1         0         0         0
                 374       187         0         1         1         0         0
                 375       188         0         1         0         0         0
                 376       188         0         1         1         0         0
                 377       189         0         1         0         0         0
                 378       189         0         1         1         0         0
                 379       190         0         1         0         0         0
                 380       190         0         1         1         0         0
                 381       191         0         1         0         0         0
                 382       191         0         1         1         0         0
                 383       192         0         1         0         0         0
                 384       192         0         1         1         0         0
                 385       193         0         1         0         0         0
                 386       193         0         1         1         0         0
                 387       194         0         1         0         0         0
                 388       194         0         1         1         0         0
                 389       195         0         1         0         0         0
                 390       195         0         1         1         0         0
                 391       196         0         1         0         0         0
                 392       196         0         1         1         0         0
                 393       197         0         1         0         0         0
                 394       197         0         1         1         0         0
                 395       198         0         1         0         0         0
                 396       198         0         1         1         0         0
                 397       199         0         1         0         0         0
                 398       199         0         1         1         0         0
                 399       200         0         1         0         0         0
                 400       200         0         1         1         0         0
                 401       201         0         1         0         0         0
                 402       201         0         1         1         0         0
                 403       202         0         1         0         0         0
                 404       202         0         1         1         0         0
                 405       203         0         1         0         0         0
                 406       203         0         1         1         0         0
                 407       204         0         1         0         0         0
                 408       204         0         1         1         0         0
                 409       205         0         1         0         0         0
                 410       205         0         1         1         0         0
                 411       206         0         1         0         0         0
                 412       206         0         1         1         0         0
                 413       207         0         1         0         0         0
                 414       207         0         1         1         0         0
                 415       208         0         1         0         0         0
                 416       208         0         1         1         0         0
                 417       209         0         1         0         0         0
                 418       209         0         1         1         0         0
                 419       210         0         1         0         0         0
                 420       210         0         1         1         0         0
                 421       211         0         1         0         0         0
                 422       211         0         1         1         0         0
                 423       212         0         1         0         0         0
                 424       212         0         1         1         0         0
                 425       213         0         1         0         0         0
                 426       213         0         1         1         0         0
                 427       214         0         1         0         0         0
                 428       214         0         1         1         0         0
                 429       215         0         1         0         0         0
                 430       215         0         1         1         0         0
                 431       216         0         1         0         0         0
                 432       216         0         1         1         0         0
                 433       217         0         1         0         0         0
                 434       217         0         1         1         0         0
                 435       218         0         1         0         0         0
                 436       218         0         1         1         0         0
                 437       219         0         1         0         0         0
                 438       219         0         1         1         0         0
                 439       220         0         1         0         0         0
                 440       220         0         1         1         0         0
                 441       221         0         1         0         0         0
                 442       221         0         1         1         0         0
                 443       222         0         1         0         0         0
                 444       222         0         1         1         0         0
                 445       223         0         1         0         0         0
                 446       223         0         1         1         0         0
                 447       224         0         1         0         0         0
                 448       224         0         1         1         0         0
                 449       225         0         1         0         0         0
                 450       225         0         1         1         0         0
                 451       226         0         1         0         0         0
                 452       226         0         1         1         0         0
                 453       227         0         1         0         0         0
                 454       227         0         1         1         0         0
                 455       228         0         1         0         0         0
                 456       228         0         1         1         0         0
                 457       229         0         1         0         0         0
                 458       229         0         1         1         0         0
                 459       230         0         1         0         0         0
                 460       230         0         1         1         0         0
                 461       231         0         1         0         0         0
                 462       231         0         1         1         0         0
                 463       232         0         1         0         0         0
                 464       232         0         1         1         0         0
                 465       233         0         1         0         0         0
                 466       233         0         1         1         0         0
                 467       234         0         1         0         0         0
                 468       234         0         1         1         0         0
                 469       235         0         1         0         0         0
                 470       235         0         1         1         0         0
                 471       236         0         1         0         0         0
                 472       236         0         1         1         0         0
                 473       237         0         1         0         0         0
                 474       237         0         1         1         0         0
                 475       238         0         1         0         0         0
                 476       238         0         1         1         0         0
                 477       239         0         1         0         0         0
                 478       239         0         1         1         0         0
                 479       240         0         1         0         0         0
                 480       240         0         1         1         0         0
                 481       241         0         1         0         0         0
                 482       241         0         1         1         0         0
                 483       242         0         1         0         0         0
                 484       242         0         1         1         0         0
                 485       243         0         1         0         0         0
                 486       243         0         1         1         0         0
                 487       244         0         1         0         0         0
                 488       244         0         1         1         0         0
                 489       245         0         1         0         0         0
                 490       245         0         1         1         0         0
                 491       246         0         1         0         0         0
                 492       246         0         1         1         0         0
                 493       247         0         1         0         0         0
                 494       247         0         1         1         0         0
                 495       248         0         1         0         0         0
                 496       248         0         1         1         0         0
                 497       249         0         1         0         0         0
                 498       249         0         1         1         0         0
                 499       250         0         1         0         0         0
                 500       250         0         1         1         0         0
                 501       251         0         1         0         0         0
                 502       251         0         1         1         0         0
                 503       252         0         1         0         0         0
                 504       252         0         1         1         0         0
                 505       253         0         1         0         0         0
                 506       253         0         1         1         0         0
                 507       254         0         1         0         0         0
                 508       254         0         1         1         0         0
                 509       255         0         1         0         0         0
                 510       255         0         1         1         0         0
                 511       256         0         1         0         0         0
                 512       256         0         1         1         0         0
                 513       257         0         1         0         0         0
                 514       257         0         1         1         0         0
                 515       258         0         1         0         0         0
                 516       258         0         1         1         0         0
                 517       259         0         1         0         0         0
                 518       259         0         1         1         0         0
                 519       260         0         1         0         0         0
                 520       260         0         1         1         0         0
                 521       261         0         1         0         0         0
                 522       261         0         1         1         0         0
                 523       262         0         1         0         0         0
                 524       262         0         1         1         0         0
                 525       263         0         1         0         0         0
                 526       263         0         1         1         0         0
                 527       264         0         1         0         0         0
                 528       264         0         1         1         0         0
                 529       265         0         1         0         0         0
                 530       265         0         1         1         0         0
                 531       266         0         1         0         0         0
                 532       266         0         1         1         0         0
                 533       267         0         1         0         0         0
                 534       267         0         1         1         0         0
                 535       268         0         1         0         0         0
                 536       268         0         1         1         0         0
                 537       269         0         1         0         0         0
                 538       269         0         1         1         0         0
                 539       270         0         1         0         0         0
                 540       270         0         1         1         0         0
                 541       271         0         1         0         0         0
                 542       271         0         1         1         0         0
                 543       272         0         1         0         0         0
                 544       272         0         1         1         0         0
                 545       273         0         1         0         0         0
                 546       273         0         1         1         0         0
                 547       274         0         1         0         0         0
                 548       274         0         1         1         0         0
                 549       275         0         1         0         0         0
                 550       275         0         1         1         0         0
                 551       276         0         1         0         0         0
                 552       276         0         1         1         0         0
                 553       277         0         1         0         0         0
                 554       277         0         1         1         0         0
                 555       278         0         1         0         0         0
                 556       278         0         1         1         0         0
                 557       279         0         1         0         0         0
                 558       279         0         1         1         0         0
                 559       280         0         1         0         0         0
                 560       280         0         1         1         0         0
                 561       281         0         1         0         0         0
                 562       281         0         1         1         0         0
                 563       282         0         1         0         0         0
                 564       282         0         1         1         0         0
                 565       283         0         1         0         0         0
                 566       283         0         1         1         0         0
                 567       284         0         1         0         0         0
                 568       284         0         1         1         0         0
                 569       285         0         1         0         0         0
                 570       285         0         1         1         0         0
                 571       286         0         1         0         0         0
                 572       286         0         1         1         0         0
                 573       287         0         1         0         0         0
                 574       287         0         1         1         0         0
                 575       288         0         1         0         0         0
                 576       288         0         1         1         0         0
                 577       289         0         1         0         0         0
                 578       289         0         1         1         0         0
                 579       290         0         1         0         0         0
                 580       290         0         1         1         0         0
                 581       291         0         1         0         0         0
                 582       291         0         1         1         0         0
                 583       292         0         1         0         0         0
                 584       292         0         1         1         0         0
                 585       293         0         1         0         0         0
                 586       293         0         1         1         0         0
                 587       294         0         1         0         0         0
                 588       294         0         1         1         0         0
                 589       295         0         1         0         0         0
                 590       295         0         1         1         0         0
                 591       296         0         1         0         0         0
                 592       296         0         1         1         0         0
                 593       297         0         1         0         0         0
                 594       297         0         1         1         0         0
                 595       298         0         1         0         0         0
                 596       298         0         1         1         0         0
                 597       299         0         1         0         0         0
                 598       299         0         1         1         0         0
                 599       300         0         1         0         0         0
                 600       300         0         1         1         0         0
                 601       301         0         1         0         0         0
                 602       301         0         1         1         0         0
                 603       302         0         1         0         0         0
                 604       302         0         1         1         0         0
                 605       303         0         1         0         0         0
                 606       303         0         1         1         0         0
                 607       304         0         1         0         0         0
                 608       304         0         1         1         0         0
                 609       305         0         1         0         0         0
                 610       305         0         1         1         0         0
                 611       306         0         1         0         0         0
                 612       306         0         1         1         0         0
                 613       307         0         1         0         0         0
                 614       307         0         1         1         0         0
                 615       308         0         1         0         0         0
                 616       308         0         1         1         0         0
                 617       309         0         1         0         0         0
                 618       309         0         1         1         0         0
                 619       310         0         1         0         0         0
                 620       310         0         1         1         0         0
                 621       311         0         1         0         0         0
                 622       311         0         1         1         0         0
                 623       312         0         1         0         0         0
                 624       312         0         1         1         0         0
                 625       313         0         1         0         0         0
                 626       313         0         1         1         0         0
                 627       314         0         1         0         0         0
                 628       314         0         1         1         0         0
                 629       315         0         1         0         0         0
                 630       315         0         1         1         0         0
                 631       316         0         1         0         0         0
                 632       316         0         1         1         0         0
                 633       317         0         1         0         0         0
                 634       317         0         1         1         0         0
                 635       318         0         1         0         0         0
                 636       318         0         1         1         0         0
                 637       319         0         1         0         0         0
                 638       319         0         1         1         0         0
                 639       320         0         1         0         0         0
                 640       320         0         1         1         0         0
                 641       321         0         1         0         0         0
                 642       321         0         1         1         0         0
                 643       322         0         1         0         0         0
                 644       322         0         1         1         0         0
                 645       323         0         1         0         0         0
                 646       323         0         1         1         0         0
                 647       324         0         1         0         0         0
                 648       324         0         1         1         0         0
                 649       325         0         1         0         0         0
                 650       325         0         1         1         0         0
                 651       326         0         1         0         0         0
                 652       326         0         1         1         0         0
                 653       327         0         1         0         0         0
                 654       327         0         1         1         0         0
                 655       328         0         1         0         0         0
                 656       328         0         1         1         0         0
                 657       329         0         1         0         0         0
                 658       329         0         1         1         0         0
                 659       330         0         1         0         0         0
                 660       330         0         1         1         0         0
                 661       331         0         1         0         0         0
                 662       331         0         1         1         0         0
                 663       332         0         1         0         0         0
                 664       332         0         1         1         0         0
                 665       333         0         1         0         0         0
                 666       333         0         1         1         0         0
                 667       334         0         1         0         0         0
                 668       334         0         1         1         0         0
                 669       335         0         1         0         0         0
                 670       335         0         1         1         0         0
                 671       336         0         1         0         0         0
                 672       336         0         1         1         0         0
                 673       337         0         1         0         0         0
                 674       337         0         1         1         0         0
                 675       338         0         1         0         0         0
                 676       338         0         1         1         0         0
                 677       339         0         1         0         0         0
                 678       339         0         1         1         0         0
                 679       340         0         1         0         0         0
                 680       340         0         1         1         0         0
                 681       341         0         1         0         0         0
                 682       341         0         1         1         0         0
                 683       342         0         1         0         0         0
                 684       342         0         1         1         0         0
                 685       343         0         1         0         0         0
                 686       343         0         1         1         0         0
                 687       344         0         1         0         0         0
                 688       344         0         1         1         0         0
                 689       345         0         1         0         0         0
                 690       345         0         1         1         0         0
                 691       346         0         1         0         0         0
                 692       346         0         1         1         0         0
                 693       347         0         1         0         0         0
                 694       347         0         1         1         0         0
                 695       348         0         1         0         0         0
                 696       348         0         1         1         0         0
 GIVEN NSRBD=                   696
 CALCULATED NSRB=                   696

          Assuming UKRMol+ integrals on input.

 On input SCATCI expects:
 1-electron integrals, NINT1e =         0
 2-electron integrals, NINT2e =         0

One electron integrals read-in.

Two electron integrals read-in.

 UKRMol+ integrals read successfully:
 1-electron integrals, NINT1e =     60726
 2-electron integrals, NINT2e =   3695332

          Nuclear repulsion energy =      38.2167591

          Finished reading UKRMol+ integrals.
   Load CI target and construct matrix elements

 TRANSFORMATION VECTOR   1 FROM SET  1 STATE  1
 SET   1    H2O2 CI calculation - doublet A                                                                                         
          NOCSF=    4    NSTAT=    4    NNUC =    5

 Nuclear data     X         Y         Z       Charge
   O  1        0.000000  1.310903 -0.057709  8.000000
   O  1        0.000000 -1.310903 -0.057709  8.000000
   H  2        1.436570  1.708123  0.915878  1.000000
   H  2       -1.436570 -1.708123  0.915878  1.000000
   sc 3        0.000000  0.000000  0.000000  0.000000
          EIGEN-ENERGIES OF THE REQ. STATES
                     -150.3783023909

 TRANSFORMATION VECTOR   2 FROM SET  2 STATE  1
 SET   2    H2O2 CI calculation - doublet B                                                                                         
          NOCSF=    3    NSTAT=    3    NNUC =    5

 Nuclear data     X         Y         Z       Charge
   O  1        0.000000  1.310903 -0.057709  8.000000
   O  1        0.000000 -1.310903 -0.057709  8.000000
   H  2        1.436570  1.708123  0.915878  1.000000
   H  2       -1.436570 -1.708123  0.915878  1.000000
   sc 3        0.000000  0.000000  0.000000  0.000000
          EIGEN-ENERGIES OF THE REQ. STATES
                     -150.4224319876
     MXCORB SET TO:       100000000


 TOTAL H Matrix     ELEMENTS      =     57630
 NON-ZERO ELEMENTS evaluated      =     57630
 Total    prototype ELEMENTS      =       105
 Non-zero prototype ELEMENTS      =         5

 Number (prototype) integrals     =       326
 Compressed (prototype) integrals =       136
 Number integrals evaluated       =   1491294
 ===================================================
  inside subroutine --> 'dgmain' --> begins. 
 

  ************************************************************************************************************************

 MATRIX DIAGONALIZATION SECTION
 (RUN)     H2O2 CI calculation - singlet B                                                                                         
  DATA SET FILE NUMBERS AND LENGTH SPECIFICATIONS :
      NFTE = 81      NFTW =     25

 NPFLG :      0     0
 NCISET:      2

 NPCVC =    1
 THRHM = 0.10D-14


 (EMX)     e + H2O2 - singlet B                                                                                                    

   339 Eigenvectors to be computed for
   339 dimensional final Hamiltonian matrix

     57630 Hamiltonian elements read from unit NFTE = 81

 Header:    ********                CIDATA  

 SET   1    H2O2 CI calculation - singlet A                                                                                         

 MGVN = 0    s =   0.0    sz =   0.0    NELT =   18    NNUC =  5

 NOCSF=  340    NSTAT=  340    EN   =       38.2167590532

 EIGEN-ENERGIES
                     -150.8166485806     -150.5342680176     -150.5165357124     -150.5081753507     -150.4802010492
                     -150.4767910915     -150.4753056953     -150.4695293376     -150.4648853367     -150.4569673545
                     -150.4567436300     -150.4562327793     -150.4554143531     -150.4520061694     -150.4466819533
                     -150.4424784450     -150.4379570472     -150.4377642316     -150.4374453120     -150.4371374959
                     -150.4370198549     -150.4356156170     -150.4314073984     -150.4307872580     -150.4250907603
                     -150.4202078790     -150.4185049171     -150.4172380041     -150.4165490237     -150.4145218226
                     -150.4124515575     -150.4119123645     -150.4111493994     -150.4097105374     -150.4077390754
                     -150.4026925995     -150.3991196541     -150.3948598368     -150.3938208975     -150.3937964138
                     -150.3934641332     -150.3932058731     -150.3928135196     -150.3831500774     -150.3818595841
                     -150.3812877248     -150.3803997780     -150.3792137736     -150.3744065903     -150.3732181638
                     -150.3716045052     -150.3699820654     -150.3525663904     -150.3521035367     -150.3472920822
                     -150.3465914995     -150.3447069631     -150.3445798988     -150.3406103716     -150.3376929915
                     -150.3374345025     -150.3369148689     -150.3365983561     -150.3358344649     -150.3348575544
                     -150.3307085196     -150.3206527907     -150.3088774637     -150.3028542432     -150.3005953299
                     -150.2971530335     -150.2949379501     -150.2936844927     -150.2923198962     -150.2905870928
                     -150.2899154177     -150.2837156938     -150.2630835611     -150.2596552360     -150.2520184938
                     -150.2514987145     -150.2508988833     -150.2500401880     -150.2489684463     -150.2486096927
                     -150.2469580948     -150.2453517455     -150.2401279199     -150.2380925794     -150.2305963387
                     -150.2139529651     -150.2097338527     -150.2039628203     -150.2000073962     -150.1955542850
                     -150.1945598254     -150.1822759461     -150.1803654495     -150.1782290119     -150.1756609316
                     -150.1723580039     -150.1598204871     -150.1481553027     -150.1390770181     -150.1381855101
                     -150.1364565300     -150.1360288679     -150.1341500016     -150.1317490977     -150.1300791058
                     -150.1283535046     -150.1191794136     -150.1130014137     -150.1100168979     -150.0873523713
                     -150.0830241251     -150.0747467638     -150.0703999932     -150.0664011424     -150.0639144063
                     -150.0559582743     -150.0433938016     -150.0407326956     -150.0376899162     -150.0342095294
                     -150.0291795639     -150.0098549426     -150.0038939122     -149.9995799879     -149.9990006232
                     -149.9964587618     -149.9934874947     -149.9902642538     -149.9888251046     -149.9841977036
                     -149.9797173371     -149.9668863685     -149.9584791560     -149.9558309770     -149.9345838054
                     -149.9225408328     -149.9149999390     -149.9119318085     -149.9028499086     -149.8896436168
                     -149.8865735660     -149.8785918472     -149.8755050804     -149.8713580385     -149.8669357664
                     -149.8599341194     -149.8397179331     -149.8351843842     -149.8343428166     -149.8311958663
                     -149.8286811911     -149.8270233902     -149.8229472897     -149.8212470166     -149.8140584638
                     -149.7992238926     -149.7901992405     -149.7767331922     -149.7757548302     -149.7625728145
                     -149.7456326050     -149.7325030953     -149.7180431165     -149.7091143247     -149.6954939507
                     -149.6891064487     -149.6848158645     -149.6794810616     -149.6752698315     -149.6732742456
                     -149.6653955606     -149.6460333638     -149.6450282590     -149.6414106941     -149.6399833638
                     -149.6365882287     -149.6345063422     -149.6292399247     -149.6141901464     -149.6104462091
                     -149.5861774811     -149.5843899473     -149.5687245034     -149.5621431331     -149.5572785069
                     -149.5376237977     -149.5241259262     -149.4932799734     -149.4792995676     -149.4686521102
                     -149.4666258331     -149.4637646537     -149.4570170975     -149.4504867040     -149.4494472046
                     -149.4399391132     -149.4244615877     -149.4236329564     -149.4184249926     -149.4128604829
                     -149.4119668460     -149.4063887717     -149.3869791558     -149.3693271369     -149.3674890411
                     -149.3430899865     -149.3370790647     -149.3324444301     -149.3208062641     -149.3120008490
                     -149.2973580421     -149.2879840335     -149.2520237315     -149.2331740402     -149.2236962914
                     -149.2091680670     -149.2049939866     -149.2003023136     -149.1987778093     -149.1967096601
                     -149.1923639053     -149.1628023136     -149.1622912424     -149.1587555918     -149.1550942420
                     -149.1518266547     -149.1483022822     -149.0639533054     -149.0364666491     -149.0232241621
                     -149.0185106264     -149.0018183581     -148.9739213641     -148.9540545050     -148.9465505465
                     -148.9122142348     -148.9024296030     -148.8969502638     -148.8794978932     -148.8776601337
                     -148.8467297822     -148.8392740652     -148.7991657621     -148.7362995650     -148.7206434905
                     -148.7126624228     -148.7087100997     -148.6980289385     -148.6928177833     -148.6816198129
                     -148.6772856906     -148.6720060071     -148.6687980108     -148.6646853112     -148.6413168320
                     -148.6280282932     -148.5717469993     -148.5176949907     -148.2673656901     -148.1156102676
                     -148.1130042063     -148.1110169456     -148.1060026037     -148.0866852115     -148.0729218381
                     -148.0713907734     -148.0689760795     -148.0652667087     -148.0622555937     -148.0466944842
                     -148.0447962311     -148.0304172297     -148.0216052311     -148.0013087320     -147.9618765645
                     -147.9612801798     -147.9604011538     -147.9600102306     -147.9467789340     -147.9180376023
                     -147.9172451718     -147.9163546377     -147.9160231521     -147.9127464770     -147.6184367192
                     -147.5884685839     -147.5869508200     -147.5835462044     -147.5762320285     -147.5509067044
                     -147.5423455817     -147.5395867539     -147.5373833258     -147.5311044724     -147.5028419372
                     -147.4666537471     -147.4233259615     -147.4228440158     -147.4181961484     -147.3765364932
                     -147.2776510189     -147.1087671015     -147.1069232778     -147.1042090538     -147.1016511549
                     -147.0654726768     -147.0627385785     -147.0601842526     -147.0576335213     -147.0444245080
                     -131.1549559157     -131.1541586351     -131.1430542147     -131.1422614081     -131.1393598181
                     -131.1390271824     -131.1388302681     -131.1384258662     -131.1283814699     -131.1282738002
                     -131.1281156602     -131.1278981503     -131.1139282603     -131.1096088559     -131.0990764016
                     -131.0984149747     -131.0972057171     -131.0949712932     -131.0947227331     -131.0941293341
                     -131.0842703740     -131.0842487197     -131.0840539508     -131.0839285055     -131.0837197063
 CI data stored as set number  2

 SET   2    H2O2 CI calculation - singlet B                                                                                         

 MGVN = 1    s =   0.0    sz =   0.0    NELT =   18    NNUC =  5

 Nuclear data     X         Y         Z       Charge
   O  1        0.000000  1.310903 -0.057709  8.000000
   O  1        0.000000 -1.310903 -0.057709  8.000000
   H  2        1.436570  1.708123  0.915878  1.000000
   H  2       -1.436570 -1.708123  0.915878  1.000000
   sc 3        0.000000  0.000000  0.000000  0.000000

 NOCSF=  339    NSTAT=  339    EN   =       38.2167590532

 NTGSYM=   2
  I   MCONT  NOTGT
  1      1    162
  2      0    177

 EIGEN-ENERGIES
                     -150.5607946243     -150.5084403661     -150.4873433466     -150.4865967590     -150.4808315968
                     -150.4777097613     -150.4771127660     -150.4690858727     -150.4671525141     -150.4568367112
                     -150.4562350396     -150.4554196853     -150.4536358406     -150.4529723583     -150.4483750909
                     -150.4431256611     -150.4380069200     -150.4379263211     -150.4377504446     -150.4374489289
                     -150.4370214566     -150.4365202188     -150.4323130283     -150.4302511649     -150.4258642220
                     -150.4185183919     -150.4176147048     -150.4164261803     -150.4145343367     -150.4127477810
                     -150.4125750029     -150.4119293465     -150.4111975256     -150.4079827548     -150.4029500042
                     -150.3960082761     -150.3948323106     -150.3936196228     -150.3935170049     -150.3932004748
                     -150.3928146260     -150.3869365549     -150.3846120196     -150.3820906065     -150.3818439320
                     -150.3813047439     -150.3804045722     -150.3792143158     -150.3756991841     -150.3737805228
                     -150.3727888471     -150.3718467939     -150.3700515650     -150.3645313923     -150.3523820528
                     -150.3464749721     -150.3451391287     -150.3409957030     -150.3386611184     -150.3370035709
                     -150.3366789826     -150.3358525932     -150.3348607744     -150.3291070837     -150.3093031929
                     -150.3059770565     -150.3042627699     -150.3028920885     -150.3005791325     -150.2976401554
                     -150.2971454575     -150.2949219622     -150.2944217996     -150.2938045329     -150.2926761377
                     -150.2922275665     -150.2905343464     -150.2845585424     -150.2652448557     -150.2551663324
                     -150.2508955968     -150.2503220792     -150.2492625202     -150.2485816905     -150.2469640456
                     -150.2466299743     -150.2417021266     -150.2379889685     -150.2123810223     -150.2078954411
                     -150.2066287919     -150.2003980213     -150.1952069483     -150.1943626552     -150.1845753398
                     -150.1826298190     -150.1814124382     -150.1804682041     -150.1782374304     -150.1770785923
                     -150.1756607319     -150.1712602621     -150.1635482370     -150.1513786662     -150.1373612085
                     -150.1362974592     -150.1341781618     -150.1317556749     -150.1281014390     -150.1234323091
                     -150.1163207609     -150.1131355936     -150.1098210226     -150.0868470385     -150.0842950786
                     -150.0742631341     -150.0686819969     -150.0663363018     -150.0540639791     -150.0438172055
                     -150.0422977419     -150.0409112404     -150.0386737921     -150.0376440444     -150.0342045981
                     -150.0270855705     -150.0216965548     -150.0112972570     -150.0106451388     -149.9980250691
                     -149.9964881648     -149.9935056757     -149.9902657197     -149.9797752365     -149.9714234514
                     -149.9636841903     -149.9558556018     -149.9462975238     -149.9422303862     -149.9370110115
                     -149.9223181549     -149.9119633813     -149.8994049172     -149.8848755593     -149.8795939632
                     -149.8775946110     -149.8758628133     -149.8714288018     -149.8669608828     -149.8653199103
                     -149.8486206190     -149.8435105005     -149.8404561193     -149.8331981495     -149.8311693078
                     -149.8287602991     -149.8270291677     -149.8229680942     -149.8075379671     -149.7944470214
                     -149.7864831946     -149.7768504785     -149.7755121851     -149.7661300328     -149.7525811124
                     -149.7454976781     -149.7325737237     -149.7055021722     -149.6898174832     -149.6895660435
                     -149.6856301573     -149.6847574185     -149.6789723657     -149.6732746539     -149.6680596191
                     -149.6482934540     -149.6419371867     -149.6406346393     -149.6359085308     -149.6345016205
                     -149.6311469689     -149.6292554107     -149.6120601827     -149.6032890441     -149.5914972954
                     -149.5845678326     -149.5731948932     -149.5687522701     -149.5624100909     -149.5393601138
                     -149.5242410174     -149.5227534696     -149.4820352958     -149.4686842408     -149.4679157128
                     -149.4636343302     -149.4571937966     -149.4557428048     -149.4504581788     -149.4434674689
                     -149.4231146899     -149.4203166228     -149.4146630948     -149.4127277561     -149.4074165464
                     -149.4062737603     -149.3834482431     -149.3700587421     -149.3583113698     -149.3455315062
                     -149.3418018708     -149.3324804118     -149.3282117631     -149.3208418970     -149.2983167693
                     -149.2880392220     -149.2765163957     -149.2431991363     -149.2090348530     -149.2066497037
                     -149.2055909427     -149.2023371072     -149.1976927561     -149.1928408379     -149.1922591179
                     -149.1745429268     -149.1610387221     -149.1564138670     -149.1551591747     -149.1523591181
                     -149.1483241782     -149.0796688077     -149.0566965230     -149.0324831079     -149.0157225192
                     -148.9835099052     -148.9649168623     -148.9564831139     -148.9465600010     -148.9218521974
                     -148.9096083779     -148.9024047532     -148.8772271282     -148.8461438439     -148.8385364612
                     -148.8363815242     -148.8008059524     -148.7441266630     -148.7246325931     -148.7167799631
                     -148.7129685390     -148.7086966328     -148.6968597924     -148.6897874009     -148.6764708920
                     -148.6722700751     -148.6683699310     -148.6646959877     -148.6461332387     -148.6290478470
                     -148.6087240834     -148.4636022309     -148.3131779247     -148.1162051391     -148.1130116681
                     -148.1062785546     -148.0901434562     -148.0758859135     -148.0714484111     -148.0689723255
                     -148.0661447647     -148.0657995063     -148.0619413869     -148.0468480985     -148.0410970695
                     -148.0269994235     -148.0209304633     -148.0015168732     -147.9916419977     -147.9622847754
                     -147.9613766804     -147.9604616672     -147.9602078873     -147.9570724648     -147.9175911538
                     -147.9171954534     -147.9163406251     -147.9158965080     -147.6713788189     -147.5866430879
                     -147.5835885552     -147.5753063418     -147.5467329787     -147.5440670972     -147.5427189091
                     -147.5395324742     -147.5320715018     -147.5060381855     -147.4923424343     -147.4720077994
                     -147.4672349267     -147.4222407754     -147.4216945753     -147.3781286359     -147.3228196831
                     -147.1099962312     -147.1067630316     -147.1041379230     -147.1021048445     -147.0891005301
                     -147.0642431093     -147.0629143462     -147.0602591206     -147.0575280700     -131.1580318023
                     -131.1538019052     -131.1431082035     -131.1423538140     -131.1412624277     -131.1391968508
                     -131.1389286867     -131.1385285394     -131.1283997925     -131.1283705871     -131.1282763735
                     -131.1281180509     -131.1278984003     -131.1108743588     -131.1100497645     -131.0989982364
                     -131.0982086039     -131.0951940601     -131.0948787027     -131.0946453997     -131.0941716189
                     -131.0841539530     -131.0840948992     -131.0839197920     -131.0837197943
