+-------------------------------------------------------------------------+
|              _              |                                           |
| || || ||//  | \          |  | University College London (C) 1994 - 2019 |
| || || ||    | / |/\/\ /\ |  | Open University           (C) 2007 - 2019 |
| \\_// ||\\  | \ | | | \/ |  |                                           |
|                             |                                           |
+-------------------------------------------------------------------------+
| Last revision: 2.0.2                                                    |
| Last author:   Jimena Gorfinkiel                                        |
| Last date:     Tue Mar 12 13:22:01 2019 +0000                           |
+-------------------------------------------------------------------------+


 PROGRAM SCATCI (19 Oct 2009) : 

                         DATE = 20190326

                         TIME = 154734.389


 CONGEN: e + H₂O⁺ - singlet B2                                                                                               
 SCATCI: e + H₂O⁺ - singlet B2                                                                                               
 MGVN =         2     S    =  0.0
 NELT =        10     SZ   =  0.0
 IDIAG=         2     R    =  0.0
 THRES=   0.1D-09     NSYM =    4
 MEGUL= 72, NOCSF=        10
 NPFLG         0   0   0   0   0   0
 NOB(i)=                   151
 setting NOBE(i)=                   151
 NOB(i)=                    98
 setting NOBE(i)=                    98
 NOB(i)=                    98
 setting NOBE(i)=                    98
 NOB(i)=                    63
 setting NOBE(i)=                    63
 NOB  =       151  98  98  63
 NOB0 =         3   1   1   0
 NOBC =         3   0   1   0
 NDTRF=         1   2   3   4   5   6   7   8 303 696
 NSRB=  820    LNDOF=       162    LCDOF=        20
 nfte =   82        nfti =    16       lembf=  5000       iodr =   1
 MOLECULE SYMMETRY CASE,  SYMTYP = 2

 Prototype CSF option requested

 CI target option requested,
 Vectors to be read from unit NFTG = 26
 Phases for target vectors read in from CONGEN

 Number of target symmetries in expansion,   NTGSYM =    3
 Number of continuum orbitals for each state, NOTGT =   97   63  148
 Number of CI components for each state,      NCTGT =         3         1         1
 Number of target states of each symmetry,   NUMTGT =    1    1    1
 Continuum M projection  for each state,      MCONT =    2    3    0

 Diagonalisation of Hamiltonian matrix requested
 SCATCI will expand NOCSF =     10 prototype CSFs
               into MXCSF =    502 actual configurations
               and  MOCSF =    308 dimension final Hamiltonian

 Number of last continuum CSF, NCONT =     10
     ENERGY EXPRESSIONS COMPUTED FOR MOLECULE SYMMETRY CASE - SYMTYP=  2
 All IIII blocks of integrals
                     1                     0                     0
                     0                     0
                     2                     1                     1
                     1                     1
                     3                     2                     2
                     2                     2
                     4                     3                     3
                     3                     3
 All IJIJ blocks
                     5                     1                     0
                     1                     0
                     6                     2                     0
                     2                     0
                     7                     2                     1
                     2                     1
                     8                     3                     0
                     3                     0
                     9                     3                     1
                     3                     1
                    10                     3                     2
                     3                     2
 The IIJJ blocks of integrals
                    11                     1                     1
                     0                     0
                    12                     2                     2
                     0                     0
                    13                     2                     2
                     1                     1
                    14                     3                     3
                     0                     0
                    15                     3                     3
                     1                     1
                    16                     3                     3
                     2                     2
 The IJKL blocks
                    17                     3                     0
                     2                     1
                    18                     3                     1
                     2                     0
                    19                     3                     2
                     1                     0
 NOBE =       151        98        98        63
 MBAS =         0        55
 NBASH=         1     11477     16328     21179     23195
   Read wavefunctions from CONGEN and load integrals
                   I         N         G         M         S      MPOS      MCON
                   1         1         0         0         0         0         1
                   2         1         0         0         1         0         1
                   3         2         0         0         0         0         1
                   4         2         0         0         1         0         1
                   5         3         0         0         0         0         1
                   6         3         0         0         1         0         1
                   7         4         0         0         0         0         0
                   8         4         0         0         1         0         0
                   9         5         0         0         0         0         0
                  10         5         0         0         1         0         0
                  11         6         0         0         0         0         0
                  12         6         0         0         1         0         0
                  13         7         0         0         0         0         0
                  14         7         0         0         1         0         0
                  15         8         0         0         0         0         0
                  16         8         0         0         1         0         0
                  17         9         0         0         0         0         0
                  18         9         0         0         1         0         0
                  19        10         0         0         0         0         0
                  20        10         0         0         1         0         0
                  21        11         0         0         0         0         0
                  22        11         0         0         1         0         0
                  23        12         0         0         0         0         0
                  24        12         0         0         1         0         0
                  25        13         0         0         0         0         0
                  26        13         0         0         1         0         0
                  27        14         0         0         0         0         0
                  28        14         0         0         1         0         0
                  29        15         0         0         0         0         0
                  30        15         0         0         1         0         0
                  31        16         0         0         0         0         0
                  32        16         0         0         1         0         0
                  33        17         0         0         0         0         0
                  34        17         0         0         1         0         0
                  35        18         0         0         0         0         0
                  36        18         0         0         1         0         0
                  37        19         0         0         0         0         0
                  38        19         0         0         1         0         0
                  39        20         0         0         0         0         0
                  40        20         0         0         1         0         0
                  41        21         0         0         0         0         0
                  42        21         0         0         1         0         0
                  43        22         0         0         0         0         0
                  44        22         0         0         1         0         0
                  45        23         0         0         0         0         0
                  46        23         0         0         1         0         0
                  47        24         0         0         0         0         0
                  48        24         0         0         1         0         0
                  49        25         0         0         0         0         0
                  50        25         0         0         1         0         0
                  51        26         0         0         0         0         0
                  52        26         0         0         1         0         0
                  53        27         0         0         0         0         0
                  54        27         0         0         1         0         0
                  55        28         0         0         0         0         0
                  56        28         0         0         1         0         0
                  57        29         0         0         0         0         0
                  58        29         0         0         1         0         0
                  59        30         0         0         0         0         0
                  60        30         0         0         1         0         0
                  61        31         0         0         0         0         0
                  62        31         0         0         1         0         0
                  63        32         0         0         0         0         0
                  64        32         0         0         1         0         0
                  65        33         0         0         0         0         0
                  66        33         0         0         1         0         0
                  67        34         0         0         0         0         0
                  68        34         0         0         1         0         0
                  69        35         0         0         0         0         0
                  70        35         0         0         1         0         0
                  71        36         0         0         0         0         0
                  72        36         0         0         1         0         0
                  73        37         0         0         0         0         0
                  74        37         0         0         1         0         0
                  75        38         0         0         0         0         0
                  76        38         0         0         1         0         0
                  77        39         0         0         0         0         0
                  78        39         0         0         1         0         0
                  79        40         0         0         0         0         0
                  80        40         0         0         1         0         0
                  81        41         0         0         0         0         0
                  82        41         0         0         1         0         0
                  83        42         0         0         0         0         0
                  84        42         0         0         1         0         0
                  85        43         0         0         0         0         0
                  86        43         0         0         1         0         0
                  87        44         0         0         0         0         0
                  88        44         0         0         1         0         0
                  89        45         0         0         0         0         0
                  90        45         0         0         1         0         0
                  91        46         0         0         0         0         0
                  92        46         0         0         1         0         0
                  93        47         0         0         0         0         0
                  94        47         0         0         1         0         0
                  95        48         0         0         0         0         0
                  96        48         0         0         1         0         0
                  97        49         0         0         0         0         0
                  98        49         0         0         1         0         0
                  99        50         0         0         0         0         0
                 100        50         0         0         1         0         0
                 101        51         0         0         0         0         0
                 102        51         0         0         1         0         0
                 103        52         0         0         0         0         0
                 104        52         0         0         1         0         0
                 105        53         0         0         0         0         0
                 106        53         0         0         1         0         0
                 107        54         0         0         0         0         0
                 108        54         0         0         1         0         0
                 109        55         0         0         0         0         0
                 110        55         0         0         1         0         0
                 111        56         0         0         0         0         0
                 112        56         0         0         1         0         0
                 113        57         0         0         0         0         0
                 114        57         0         0         1         0         0
                 115        58         0         0         0         0         0
                 116        58         0         0         1         0         0
                 117        59         0         0         0         0         0
                 118        59         0         0         1         0         0
                 119        60         0         0         0         0         0
                 120        60         0         0         1         0         0
                 121        61         0         0         0         0         0
                 122        61         0         0         1         0         0
                 123        62         0         0         0         0         0
                 124        62         0         0         1         0         0
                 125        63         0         0         0         0         0
                 126        63         0         0         1         0         0
                 127        64         0         0         0         0         0
                 128        64         0         0         1         0         0
                 129        65         0         0         0         0         0
                 130        65         0         0         1         0         0
                 131        66         0         0         0         0         0
                 132        66         0         0         1         0         0
                 133        67         0         0         0         0         0
                 134        67         0         0         1         0         0
                 135        68         0         0         0         0         0
                 136        68         0         0         1         0         0
                 137        69         0         0         0         0         0
                 138        69         0         0         1         0         0
                 139        70         0         0         0         0         0
                 140        70         0         0         1         0         0
                 141        71         0         0         0         0         0
                 142        71         0         0         1         0         0
                 143        72         0         0         0         0         0
                 144        72         0         0         1         0         0
                 145        73         0         0         0         0         0
                 146        73         0         0         1         0         0
                 147        74         0         0         0         0         0
                 148        74         0         0         1         0         0
                 149        75         0         0         0         0         0
                 150        75         0         0         1         0         0
                 151        76         0         0         0         0         0
                 152        76         0         0         1         0         0
                 153        77         0         0         0         0         0
                 154        77         0         0         1         0         0
                 155        78         0         0         0         0         0
                 156        78         0         0         1         0         0
                 157        79         0         0         0         0         0
                 158        79         0         0         1         0         0
                 159        80         0         0         0         0         0
                 160        80         0         0         1         0         0
                 161        81         0         0         0         0         0
                 162        81         0         0         1         0         0
                 163        82         0         0         0         0         0
                 164        82         0         0         1         0         0
                 165        83         0         0         0         0         0
                 166        83         0         0         1         0         0
                 167        84         0         0         0         0         0
                 168        84         0         0         1         0         0
                 169        85         0         0         0         0         0
                 170        85         0         0         1         0         0
                 171        86         0         0         0         0         0
                 172        86         0         0         1         0         0
                 173        87         0         0         0         0         0
                 174        87         0         0         1         0         0
                 175        88         0         0         0         0         0
                 176        88         0         0         1         0         0
                 177        89         0         0         0         0         0
                 178        89         0         0         1         0         0
                 179        90         0         0         0         0         0
                 180        90         0         0         1         0         0
                 181        91         0         0         0         0         0
                 182        91         0         0         1         0         0
                 183        92         0         0         0         0         0
                 184        92         0         0         1         0         0
                 185        93         0         0         0         0         0
                 186        93         0         0         1         0         0
                 187        94         0         0         0         0         0
                 188        94         0         0         1         0         0
                 189        95         0         0         0         0         0
                 190        95         0         0         1         0         0
                 191        96         0         0         0         0         0
                 192        96         0         0         1         0         0
                 193        97         0         0         0         0         0
                 194        97         0         0         1         0         0
                 195        98         0         0         0         0         0
                 196        98         0         0         1         0         0
                 197        99         0         0         0         0         0
                 198        99         0         0         1         0         0
                 199       100         0         0         0         0         0
                 200       100         0         0         1         0         0
                 201       101         0         0         0         0         0
                 202       101         0         0         1         0         0
                 203       102         0         0         0         0         0
                 204       102         0         0         1         0         0
                 205       103         0         0         0         0         0
                 206       103         0         0         1         0         0
                 207       104         0         0         0         0         0
                 208       104         0         0         1         0         0
                 209       105         0         0         0         0         0
                 210       105         0         0         1         0         0
                 211       106         0         0         0         0         0
                 212       106         0         0         1         0         0
                 213       107         0         0         0         0         0
                 214       107         0         0         1         0         0
                 215       108         0         0         0         0         0
                 216       108         0         0         1         0         0
                 217       109         0         0         0         0         0
                 218       109         0         0         1         0         0
                 219       110         0         0         0         0         0
                 220       110         0         0         1         0         0
                 221       111         0         0         0         0         0
                 222       111         0         0         1         0         0
                 223       112         0         0         0         0         0
                 224       112         0         0         1         0         0
                 225       113         0         0         0         0         0
                 226       113         0         0         1         0         0
                 227       114         0         0         0         0         0
                 228       114         0         0         1         0         0
                 229       115         0         0         0         0         0
                 230       115         0         0         1         0         0
                 231       116         0         0         0         0         0
                 232       116         0         0         1         0         0
                 233       117         0         0         0         0         0
                 234       117         0         0         1         0         0
                 235       118         0         0         0         0         0
                 236       118         0         0         1         0         0
                 237       119         0         0         0         0         0
                 238       119         0         0         1         0         0
                 239       120         0         0         0         0         0
                 240       120         0         0         1         0         0
                 241       121         0         0         0         0         0
                 242       121         0         0         1         0         0
                 243       122         0         0         0         0         0
                 244       122         0         0         1         0         0
                 245       123         0         0         0         0         0
                 246       123         0         0         1         0         0
                 247       124         0         0         0         0         0
                 248       124         0         0         1         0         0
                 249       125         0         0         0         0         0
                 250       125         0         0         1         0         0
                 251       126         0         0         0         0         0
                 252       126         0         0         1         0         0
                 253       127         0         0         0         0         0
                 254       127         0         0         1         0         0
                 255       128         0         0         0         0         0
                 256       128         0         0         1         0         0
                 257       129         0         0         0         0         0
                 258       129         0         0         1         0         0
                 259       130         0         0         0         0         0
                 260       130         0         0         1         0         0
                 261       131         0         0         0         0         0
                 262       131         0         0         1         0         0
                 263       132         0         0         0         0         0
                 264       132         0         0         1         0         0
                 265       133         0         0         0         0         0
                 266       133         0         0         1         0         0
                 267       134         0         0         0         0         0
                 268       134         0         0         1         0         0
                 269       135         0         0         0         0         0
                 270       135         0         0         1         0         0
                 271       136         0         0         0         0         0
                 272       136         0         0         1         0         0
                 273       137         0         0         0         0         0
                 274       137         0         0         1         0         0
                 275       138         0         0         0         0         0
                 276       138         0         0         1         0         0
                 277       139         0         0         0         0         0
                 278       139         0         0         1         0         0
                 279       140         0         0         0         0         0
                 280       140         0         0         1         0         0
                 281       141         0         0         0         0         0
                 282       141         0         0         1         0         0
                 283       142         0         0         0         0         0
                 284       142         0         0         1         0         0
                 285       143         0         0         0         0         0
                 286       143         0         0         1         0         0
                 287       144         0         0         0         0         0
                 288       144         0         0         1         0         0
                 289       145         0         0         0         0         0
                 290       145         0         0         1         0         0
                 291       146         0         0         0         0         0
                 292       146         0         0         1         0         0
                 293       147         0         0         0         0         0
                 294       147         0         0         1         0         0
                 295       148         0         0         0         0         0
                 296       148         0         0         1         0         0
                 297       149         0         0         0         0         0
                 298       149         0         0         1         0         0
                 299       150         0         0         0         0         0
                 300       150         0         0         1         0         0
                 301       151         0         0         0         0         0
                 302       151         0         0         1         0         0
                 303       152         0         1         0         0         1
                 304       152         0         1         1         0         1
                 305       153         0         1         0         0         0
                 306       153         0         1         1         0         0
                 307       154         0         1         0         0         0
                 308       154         0         1         1         0         0
                 309       155         0         1         0         0         0
                 310       155         0         1         1         0         0
                 311       156         0         1         0         0         0
                 312       156         0         1         1         0         0
                 313       157         0         1         0         0         0
                 314       157         0         1         1         0         0
                 315       158         0         1         0         0         0
                 316       158         0         1         1         0         0
                 317       159         0         1         0         0         0
                 318       159         0         1         1         0         0
                 319       160         0         1         0         0         0
                 320       160         0         1         1         0         0
                 321       161         0         1         0         0         0
                 322       161         0         1         1         0         0
                 323       162         0         1         0         0         0
                 324       162         0         1         1         0         0
                 325       163         0         1         0         0         0
                 326       163         0         1         1         0         0
                 327       164         0         1         0         0         0
                 328       164         0         1         1         0         0
                 329       165         0         1         0         0         0
                 330       165         0         1         1         0         0
                 331       166         0         1         0         0         0
                 332       166         0         1         1         0         0
                 333       167         0         1         0         0         0
                 334       167         0         1         1         0         0
                 335       168         0         1         0         0         0
                 336       168         0         1         1         0         0
                 337       169         0         1         0         0         0
                 338       169         0         1         1         0         0
                 339       170         0         1         0         0         0
                 340       170         0         1         1         0         0
                 341       171         0         1         0         0         0
                 342       171         0         1         1         0         0
                 343       172         0         1         0         0         0
                 344       172         0         1         1         0         0
                 345       173         0         1         0         0         0
                 346       173         0         1         1         0         0
                 347       174         0         1         0         0         0
                 348       174         0         1         1         0         0
                 349       175         0         1         0         0         0
                 350       175         0         1         1         0         0
                 351       176         0         1         0         0         0
                 352       176         0         1         1         0         0
                 353       177         0         1         0         0         0
                 354       177         0         1         1         0         0
                 355       178         0         1         0         0         0
                 356       178         0         1         1         0         0
                 357       179         0         1         0         0         0
                 358       179         0         1         1         0         0
                 359       180         0         1         0         0         0
                 360       180         0         1         1         0         0
                 361       181         0         1         0         0         0
                 362       181         0         1         1         0         0
                 363       182         0         1         0         0         0
                 364       182         0         1         1         0         0
                 365       183         0         1         0         0         0
                 366       183         0         1         1         0         0
                 367       184         0         1         0         0         0
                 368       184         0         1         1         0         0
                 369       185         0         1         0         0         0
                 370       185         0         1         1         0         0
                 371       186         0         1         0         0         0
                 372       186         0         1         1         0         0
                 373       187         0         1         0         0         0
                 374       187         0         1         1         0         0
                 375       188         0         1         0         0         0
                 376       188         0         1         1         0         0
                 377       189         0         1         0         0         0
                 378       189         0         1         1         0         0
                 379       190         0         1         0         0         0
                 380       190         0         1         1         0         0
                 381       191         0         1         0         0         0
                 382       191         0         1         1         0         0
                 383       192         0         1         0         0         0
                 384       192         0         1         1         0         0
                 385       193         0         1         0         0         0
                 386       193         0         1         1         0         0
                 387       194         0         1         0         0         0
                 388       194         0         1         1         0         0
                 389       195         0         1         0         0         0
                 390       195         0         1         1         0         0
                 391       196         0         1         0         0         0
                 392       196         0         1         1         0         0
                 393       197         0         1         0         0         0
                 394       197         0         1         1         0         0
                 395       198         0         1         0         0         0
                 396       198         0         1         1         0         0
                 397       199         0         1         0         0         0
                 398       199         0         1         1         0         0
                 399       200         0         1         0         0         0
                 400       200         0         1         1         0         0
                 401       201         0         1         0         0         0
                 402       201         0         1         1         0         0
                 403       202         0         1         0         0         0
                 404       202         0         1         1         0         0
                 405       203         0         1         0         0         0
                 406       203         0         1         1         0         0
                 407       204         0         1         0         0         0
                 408       204         0         1         1         0         0
                 409       205         0         1         0         0         0
                 410       205         0         1         1         0         0
                 411       206         0         1         0         0         0
                 412       206         0         1         1         0         0
                 413       207         0         1         0         0         0
                 414       207         0         1         1         0         0
                 415       208         0         1         0         0         0
                 416       208         0         1         1         0         0
                 417       209         0         1         0         0         0
                 418       209         0         1         1         0         0
                 419       210         0         1         0         0         0
                 420       210         0         1         1         0         0
                 421       211         0         1         0         0         0
                 422       211         0         1         1         0         0
                 423       212         0         1         0         0         0
                 424       212         0         1         1         0         0
                 425       213         0         1         0         0         0
                 426       213         0         1         1         0         0
                 427       214         0         1         0         0         0
                 428       214         0         1         1         0         0
                 429       215         0         1         0         0         0
                 430       215         0         1         1         0         0
                 431       216         0         1         0         0         0
                 432       216         0         1         1         0         0
                 433       217         0         1         0         0         0
                 434       217         0         1         1         0         0
                 435       218         0         1         0         0         0
                 436       218         0         1         1         0         0
                 437       219         0         1         0         0         0
                 438       219         0         1         1         0         0
                 439       220         0         1         0         0         0
                 440       220         0         1         1         0         0
                 441       221         0         1         0         0         0
                 442       221         0         1         1         0         0
                 443       222         0         1         0         0         0
                 444       222         0         1         1         0         0
                 445       223         0         1         0         0         0
                 446       223         0         1         1         0         0
                 447       224         0         1         0         0         0
                 448       224         0         1         1         0         0
                 449       225         0         1         0         0         0
                 450       225         0         1         1         0         0
                 451       226         0         1         0         0         0
                 452       226         0         1         1         0         0
                 453       227         0         1         0         0         0
                 454       227         0         1         1         0         0
                 455       228         0         1         0         0         0
                 456       228         0         1         1         0         0
                 457       229         0         1         0         0         0
                 458       229         0         1         1         0         0
                 459       230         0         1         0         0         0
                 460       230         0         1         1         0         0
                 461       231         0         1         0         0         0
                 462       231         0         1         1         0         0
                 463       232         0         1         0         0         0
                 464       232         0         1         1         0         0
                 465       233         0         1         0         0         0
                 466       233         0         1         1         0         0
                 467       234         0         1         0         0         0
                 468       234         0         1         1         0         0
                 469       235         0         1         0         0         0
                 470       235         0         1         1         0         0
                 471       236         0         1         0         0         0
                 472       236         0         1         1         0         0
                 473       237         0         1         0         0         0
                 474       237         0         1         1         0         0
                 475       238         0         1         0         0         0
                 476       238         0         1         1         0         0
                 477       239         0         1         0         0         0
                 478       239         0         1         1         0         0
                 479       240         0         1         0         0         0
                 480       240         0         1         1         0         0
                 481       241         0         1         0         0         0
                 482       241         0         1         1         0         0
                 483       242         0         1         0         0         0
                 484       242         0         1         1         0         0
                 485       243         0         1         0         0         0
                 486       243         0         1         1         0         0
                 487       244         0         1         0         0         0
                 488       244         0         1         1         0         0
                 489       245         0         1         0         0         0
                 490       245         0         1         1         0         0
                 491       246         0         1         0         0         0
                 492       246         0         1         1         0         0
                 493       247         0         1         0         0         0
                 494       247         0         1         1         0         0
                 495       248         0         1         0         0         0
                 496       248         0         1         1         0         0
                 497       249         0         1         0         0         0
                 498       249         0         1         1         0         0
                 499       250         0         2         0         0         1
                 500       250         0         2         1         0         1
                 501       251         0         2         0         0         0
                 502       251         0         2         1         0         0
                 503       252         0         2         0         0         0
                 504       252         0         2         1         0         0
                 505       253         0         2         0         0         0
                 506       253         0         2         1         0         0
                 507       254         0         2         0         0         0
                 508       254         0         2         1         0         0
                 509       255         0         2         0         0         0
                 510       255         0         2         1         0         0
                 511       256         0         2         0         0         0
                 512       256         0         2         1         0         0
                 513       257         0         2         0         0         0
                 514       257         0         2         1         0         0
                 515       258         0         2         0         0         0
                 516       258         0         2         1         0         0
                 517       259         0         2         0         0         0
                 518       259         0         2         1         0         0
                 519       260         0         2         0         0         0
                 520       260         0         2         1         0         0
                 521       261         0         2         0         0         0
                 522       261         0         2         1         0         0
                 523       262         0         2         0         0         0
                 524       262         0         2         1         0         0
                 525       263         0         2         0         0         0
                 526       263         0         2         1         0         0
                 527       264         0         2         0         0         0
                 528       264         0         2         1         0         0
                 529       265         0         2         0         0         0
                 530       265         0         2         1         0         0
                 531       266         0         2         0         0         0
                 532       266         0         2         1         0         0
                 533       267         0         2         0         0         0
                 534       267         0         2         1         0         0
                 535       268         0         2         0         0         0
                 536       268         0         2         1         0         0
                 537       269         0         2         0         0         0
                 538       269         0         2         1         0         0
                 539       270         0         2         0         0         0
                 540       270         0         2         1         0         0
                 541       271         0         2         0         0         0
                 542       271         0         2         1         0         0
                 543       272         0         2         0         0         0
                 544       272         0         2         1         0         0
                 545       273         0         2         0         0         0
                 546       273         0         2         1         0         0
                 547       274         0         2         0         0         0
                 548       274         0         2         1         0         0
                 549       275         0         2         0         0         0
                 550       275         0         2         1         0         0
                 551       276         0         2         0         0         0
                 552       276         0         2         1         0         0
                 553       277         0         2         0         0         0
                 554       277         0         2         1         0         0
                 555       278         0         2         0         0         0
                 556       278         0         2         1         0         0
                 557       279         0         2         0         0         0
                 558       279         0         2         1         0         0
                 559       280         0         2         0         0         0
                 560       280         0         2         1         0         0
                 561       281         0         2         0         0         0
                 562       281         0         2         1         0         0
                 563       282         0         2         0         0         0
                 564       282         0         2         1         0         0
                 565       283         0         2         0         0         0
                 566       283         0         2         1         0         0
                 567       284         0         2         0         0         0
                 568       284         0         2         1         0         0
                 569       285         0         2         0         0         0
                 570       285         0         2         1         0         0
                 571       286         0         2         0         0         0
                 572       286         0         2         1         0         0
                 573       287         0         2         0         0         0
                 574       287         0         2         1         0         0
                 575       288         0         2         0         0         0
                 576       288         0         2         1         0         0
                 577       289         0         2         0         0         0
                 578       289         0         2         1         0         0
                 579       290         0         2         0         0         0
                 580       290         0         2         1         0         0
                 581       291         0         2         0         0         0
                 582       291         0         2         1         0         0
                 583       292         0         2         0         0         0
                 584       292         0         2         1         0         0
                 585       293         0         2         0         0         0
                 586       293         0         2         1         0         0
                 587       294         0         2         0         0         0
                 588       294         0         2         1         0         0
                 589       295         0         2         0         0         0
                 590       295         0         2         1         0         0
                 591       296         0         2         0         0         0
                 592       296         0         2         1         0         0
                 593       297         0         2         0         0         0
                 594       297         0         2         1         0         0
                 595       298         0         2         0         0         0
                 596       298         0         2         1         0         0
                 597       299         0         2         0         0         0
                 598       299         0         2         1         0         0
                 599       300         0         2         0         0         0
                 600       300         0         2         1         0         0
                 601       301         0         2         0         0         0
                 602       301         0         2         1         0         0
                 603       302         0         2         0         0         0
                 604       302         0         2         1         0         0
                 605       303         0         2         0         0         0
                 606       303         0         2         1         0         0
                 607       304         0         2         0         0         0
                 608       304         0         2         1         0         0
                 609       305         0         2         0         0         0
                 610       305         0         2         1         0         0
                 611       306         0         2         0         0         0
                 612       306         0         2         1         0         0
                 613       307         0         2         0         0         0
                 614       307         0         2         1         0         0
                 615       308         0         2         0         0         0
                 616       308         0         2         1         0         0
                 617       309         0         2         0         0         0
                 618       309         0         2         1         0         0
                 619       310         0         2         0         0         0
                 620       310         0         2         1         0         0
                 621       311         0         2         0         0         0
                 622       311         0         2         1         0         0
                 623       312         0         2         0         0         0
                 624       312         0         2         1         0         0
                 625       313         0         2         0         0         0
                 626       313         0         2         1         0         0
                 627       314         0         2         0         0         0
                 628       314         0         2         1         0         0
                 629       315         0         2         0         0         0
                 630       315         0         2         1         0         0
                 631       316         0         2         0         0         0
                 632       316         0         2         1         0         0
                 633       317         0         2         0         0         0
                 634       317         0         2         1         0         0
                 635       318         0         2         0         0         0
                 636       318         0         2         1         0         0
                 637       319         0         2         0         0         0
                 638       319         0         2         1         0         0
                 639       320         0         2         0         0         0
                 640       320         0         2         1         0         0
                 641       321         0         2         0         0         0
                 642       321         0         2         1         0         0
                 643       322         0         2         0         0         0
                 644       322         0         2         1         0         0
                 645       323         0         2         0         0         0
                 646       323         0         2         1         0         0
                 647       324         0         2         0         0         0
                 648       324         0         2         1         0         0
                 649       325         0         2         0         0         0
                 650       325         0         2         1         0         0
                 651       326         0         2         0         0         0
                 652       326         0         2         1         0         0
                 653       327         0         2         0         0         0
                 654       327         0         2         1         0         0
                 655       328         0         2         0         0         0
                 656       328         0         2         1         0         0
                 657       329         0         2         0         0         0
                 658       329         0         2         1         0         0
                 659       330         0         2         0         0         0
                 660       330         0         2         1         0         0
                 661       331         0         2         0         0         0
                 662       331         0         2         1         0         0
                 663       332         0         2         0         0         0
                 664       332         0         2         1         0         0
                 665       333         0         2         0         0         0
                 666       333         0         2         1         0         0
                 667       334         0         2         0         0         0
                 668       334         0         2         1         0         0
                 669       335         0         2         0         0         0
                 670       335         0         2         1         0         0
                 671       336         0         2         0         0         0
                 672       336         0         2         1         0         0
                 673       337         0         2         0         0         0
                 674       337         0         2         1         0         0
                 675       338         0         2         0         0         0
                 676       338         0         2         1         0         0
                 677       339         0         2         0         0         0
                 678       339         0         2         1         0         0
                 679       340         0         2         0         0         0
                 680       340         0         2         1         0         0
                 681       341         0         2         0         0         0
                 682       341         0         2         1         0         0
                 683       342         0         2         0         0         0
                 684       342         0         2         1         0         0
                 685       343         0         2         0         0         0
                 686       343         0         2         1         0         0
                 687       344         0         2         0         0         0
                 688       344         0         2         1         0         0
                 689       345         0         2         0         0         0
                 690       345         0         2         1         0         0
                 691       346         0         2         0         0         0
                 692       346         0         2         1         0         0
                 693       347         0         2         0         0         0
                 694       347         0         2         1         0         0
                 695       348         0         3         0         0         0
                 696       348         0         3         1         0         0
                 697       349         0         3         0         0         0
                 698       349         0         3         1         0         0
                 699       350         0         3         0         0         0
                 700       350         0         3         1         0         0
                 701       351         0         3         0         0         0
                 702       351         0         3         1         0         0
                 703       352         0         3         0         0         0
                 704       352         0         3         1         0         0
                 705       353         0         3         0         0         0
                 706       353         0         3         1         0         0
                 707       354         0         3         0         0         0
                 708       354         0         3         1         0         0
                 709       355         0         3         0         0         0
                 710       355         0         3         1         0         0
                 711       356         0         3         0         0         0
                 712       356         0         3         1         0         0
                 713       357         0         3         0         0         0
                 714       357         0         3         1         0         0
                 715       358         0         3         0         0         0
                 716       358         0         3         1         0         0
                 717       359         0         3         0         0         0
                 718       359         0         3         1         0         0
                 719       360         0         3         0         0         0
                 720       360         0         3         1         0         0
                 721       361         0         3         0         0         0
                 722       361         0         3         1         0         0
                 723       362         0         3         0         0         0
                 724       362         0         3         1         0         0
                 725       363         0         3         0         0         0
                 726       363         0         3         1         0         0
                 727       364         0         3         0         0         0
                 728       364         0         3         1         0         0
                 729       365         0         3         0         0         0
                 730       365         0         3         1         0         0
                 731       366         0         3         0         0         0
                 732       366         0         3         1         0         0
                 733       367         0         3         0         0         0
                 734       367         0         3         1         0         0
                 735       368         0         3         0         0         0
                 736       368         0         3         1         0         0
                 737       369         0         3         0         0         0
                 738       369         0         3         1         0         0
                 739       370         0         3         0         0         0
                 740       370         0         3         1         0         0
                 741       371         0         3         0         0         0
                 742       371         0         3         1         0         0
                 743       372         0         3         0         0         0
                 744       372         0         3         1         0         0
                 745       373         0         3         0         0         0
                 746       373         0         3         1         0         0
                 747       374         0         3         0         0         0
                 748       374         0         3         1         0         0
                 749       375         0         3         0         0         0
                 750       375         0         3         1         0         0
                 751       376         0         3         0         0         0
                 752       376         0         3         1         0         0
                 753       377         0         3         0         0         0
                 754       377         0         3         1         0         0
                 755       378         0         3         0         0         0
                 756       378         0         3         1         0         0
                 757       379         0         3         0         0         0
                 758       379         0         3         1         0         0
                 759       380         0         3         0         0         0
                 760       380         0         3         1         0         0
                 761       381         0         3         0         0         0
                 762       381         0         3         1         0         0
                 763       382         0         3         0         0         0
                 764       382         0         3         1         0         0
                 765       383         0         3         0         0         0
                 766       383         0         3         1         0         0
                 767       384         0         3         0         0         0
                 768       384         0         3         1         0         0
                 769       385         0         3         0         0         0
                 770       385         0         3         1         0         0
                 771       386         0         3         0         0         0
                 772       386         0         3         1         0         0
                 773       387         0         3         0         0         0
                 774       387         0         3         1         0         0
                 775       388         0         3         0         0         0
                 776       388         0         3         1         0         0
                 777       389         0         3         0         0         0
                 778       389         0         3         1         0         0
                 779       390         0         3         0         0         0
                 780       390         0         3         1         0         0
                 781       391         0         3         0         0         0
                 782       391         0         3         1         0         0
                 783       392         0         3         0         0         0
                 784       392         0         3         1         0         0
                 785       393         0         3         0         0         0
                 786       393         0         3         1         0         0
                 787       394         0         3         0         0         0
                 788       394         0         3         1         0         0
                 789       395         0         3         0         0         0
                 790       395         0         3         1         0         0
                 791       396         0         3         0         0         0
                 792       396         0         3         1         0         0
                 793       397         0         3         0         0         0
                 794       397         0         3         1         0         0
                 795       398         0         3         0         0         0
                 796       398         0         3         1         0         0
                 797       399         0         3         0         0         0
                 798       399         0         3         1         0         0
                 799       400         0         3         0         0         0
                 800       400         0         3         1         0         0
                 801       401         0         3         0         0         0
                 802       401         0         3         1         0         0
                 803       402         0         3         0         0         0
                 804       402         0         3         1         0         0
                 805       403         0         3         0         0         0
                 806       403         0         3         1         0         0
                 807       404         0         3         0         0         0
                 808       404         0         3         1         0         0
                 809       405         0         3         0         0         0
                 810       405         0         3         1         0         0
                 811       406         0         3         0         0         0
                 812       406         0         3         1         0         0
                 813       407         0         3         0         0         0
                 814       407         0         3         1         0         0
                 815       408         0         3         0         0         0
                 816       408         0         3         1         0         0
                 817       409         0         3         0         0         0
                 818       409         0         3         1         0         0
                 819       410         0         3         0         0         0
                 820       410         0         3         1         0         0
 GIVEN NSRBD=                   820
 CALCULATED NSRB=                   820

          Assuming UKRMol+ integrals on input.

 On input SCATCI expects:
 1-electron integrals, NINT1e =         0
 2-electron integrals, NINT2e =         0

One electron integrals read-in.

Two electron integrals read-in.

 UKRMol+ integrals read successfully:
 1-electron integrals, NINT1e =     84255
 2-electron integrals, NINT2e =    860294

          Nuclear repulsion energy =       9.1891510

          Finished reading UKRMol+ integrals.
   Load CI target and construct matrix elements

 TRANSFORMATION VECTOR   1 FROM SET  1 STATE  1
 SET   1    H₂O⁺ CI calculation - doublet A1                                                                                    
          NOCSF=    3    NSTAT=    1    NNUC =    4

 Nuclear data     X         Y         Z       Charge
   O  1        0.000000  0.000000 -0.124014  8.000000
   H  2        0.000000  1.431150  0.984096  1.000000
   H  2        0.000000 -1.431150  0.984096  1.000000
   sc 3        0.000000  0.000000  0.000000  0.000000
          EIGEN-ENERGIES OF THE REQ. STATES
                      -75.5583995214

 TRANSFORMATION VECTOR   2 FROM SET  2 STATE  1
 SET   2    H₂O⁺ CI calculation - doublet B1                                                                                    
          NOCSF=    1    NSTAT=    1    NNUC =    4

 Nuclear data     X         Y         Z       Charge
   O  1        0.000000  0.000000 -0.124014  8.000000
   H  2        0.000000  1.431150  0.984096  1.000000
   H  2        0.000000 -1.431150  0.984096  1.000000
   sc 3        0.000000  0.000000  0.000000  0.000000
          EIGEN-ENERGIES OF THE REQ. STATES
                      -75.6509682274

 TRANSFORMATION VECTOR   3 FROM SET  3 STATE  1
 SET   3    H₂O⁺ CI calculation - doublet B2                                                                                    
          NOCSF=    1    NSTAT=    1    NNUC =    4

 Nuclear data     X         Y         Z       Charge
   O  1        0.000000  0.000000 -0.124014  8.000000
   H  2        0.000000  1.431150  0.984096  1.000000
   H  2        0.000000 -1.431150  0.984096  1.000000
   sc 3        0.000000  0.000000  0.000000  0.000000
          EIGEN-ENERGIES OF THE REQ. STATES
                      -75.3997477366
     MXCORB SET TO:       100000000


 TOTAL H Matrix     ELEMENTS      =     47586
 NON-ZERO ELEMENTS evaluated      =     47586
 Total    prototype ELEMENTS      =        55
 Non-zero prototype ELEMENTS      =         9

 Number (prototype) integrals     =       136
 Compressed (prototype) integrals =        92
 Number integrals evaluated       =    365713
 ===================================================
  inside subroutine --> 'dgmain' --> begins. 
 

  ************************************************************************************************************************

 MATRIX DIAGONALIZATION SECTION
 (RUN)     H₂O⁺ CI calculation - singlet B2                                                                                    
  DATA SET FILE NUMBERS AND LENGTH SPECIFICATIONS :
      NFTE = 82      NFTW =     25

 NPFLG :      0     0
 NCISET:      3

 NPCVC =    1
 THRHM = 0.10D-14


 (EMX)     e + H₂O⁺ - singlet B2                                                                                               

   308 Eigenvectors to be computed for
   308 dimensional final Hamiltonian matrix

     47586 Hamiltonian elements read from unit NFTE = 82

 Header:    ********                CIDATA  

 SET   1    H₂O⁺ CI calculation - singlet A1                                                                                    

 MGVN = 0    s =   0.0    sz =   0.0    NELT =   10    NNUC =  4

 NOCSF=  343    NSTAT=  343    EN   =        9.1891509644

 EIGEN-ENERGIES
                      -76.0878237308      -75.7442632217      -75.7170333590      -75.7100414418      -75.6909263740
                      -75.6809925613      -75.6800013253      -75.6564170351      -75.6501307623      -75.6500363091
                      -75.6494831836      -75.6305269708      -75.6205723557      -75.6174176068      -75.6013411408
                      -75.6002536265      -75.5976488468      -75.5886725955      -75.5874095876      -75.5845649146
                      -75.5722884543      -75.5642551208      -75.5579901873      -75.5574952837      -75.5570172102
                      -75.5492348172      -75.5441885380      -75.5392312905      -75.5375812587      -75.5092082743
                      -75.5069936924      -75.5049748314      -75.4900715850      -75.4699101909      -75.4651635744
                      -75.4621974490      -75.4613836891      -75.4528239049      -75.4504117299      -75.4478867473
                      -75.4462833042      -75.4451203659      -75.4301880177      -75.4293532728      -75.4227507626
                      -75.4134229727      -75.4007980105      -75.3990740140      -75.3983713997      -75.3832105741
                      -75.3796282525      -75.3768449027      -75.3752678493      -75.3680223032      -75.3526703285
                      -75.3500123595      -75.3479254152      -75.3262877268      -75.3130216151      -75.3096957983
                      -75.2926580742      -75.2889300715      -75.2887509048      -75.2867658358      -75.2860388175
                      -75.2841595820      -75.2832357795      -75.2763463621      -75.2243473039      -75.2173672791
                      -75.2128006735      -75.2090046896      -75.1926670322      -75.1842026494      -75.1824952167
                      -75.1725724549      -75.1708377174      -75.1682007299      -75.1548007244      -75.1297459872
                      -75.1266776011      -75.1260209622      -75.1049092700      -75.0839879950      -75.0829141619
                      -75.0787249376      -75.0760870972      -75.0553305806      -75.0460322650      -75.0371491107
                      -75.0299326398      -75.0004630601      -74.9796987080      -74.9565167668      -74.9531977338
                      -74.9500857724      -74.9400894255      -74.9241593636      -74.9205048368      -74.9183935923
                      -74.9144341081      -74.9116846393      -74.8813815575      -74.8527995869      -74.8326201349
                      -74.8257309548      -74.8245501766      -74.8221501353      -74.8107500908      -74.8012620561
                      -74.7820220509      -74.7706409653      -74.7501813284      -74.7099114877      -74.6891653041
                      -74.6774826280      -74.6732634977      -74.6651781842      -74.6615477526      -74.6459853269
                      -74.6231550679      -74.6153109894      -74.6091753171      -74.5884468941      -74.5577065669
                      -74.5400149156      -74.5368114112      -74.5288298315      -74.5274208637      -74.5229246533
                      -74.5169607782      -74.4641692127      -74.4582775643      -74.4507501892      -74.3972856115
                      -74.3783715767      -74.3773726918      -74.3666133392      -74.3572310978      -74.3230021278
                      -74.3032408414      -74.2808509278      -74.2709591130      -74.2609606354      -74.2486656795
                      -74.2242931644      -74.2173182849      -74.2106704929      -74.1963734419      -74.1844775355
                      -74.1784740314      -74.1658883792      -74.1213066198      -74.1012571171      -74.0868473426
                      -74.0399716943      -74.0373088648      -74.0237303708      -74.0223246358      -73.9928914065
                      -73.9409292693      -73.9122012350      -73.8922181547      -73.8806041436      -73.8698519074
                      -73.8626025748      -73.8618259811      -73.8487661684      -73.8326246494      -73.8096982694
                      -73.7952810798      -73.7879584189      -73.7694386611      -73.7380064057      -73.6934577197
                      -73.6785405632      -73.6510585695      -73.6369784580      -73.6335936365      -73.6250151070
                      -73.5842671568      -73.5150272648      -73.4734629848      -73.4556173580      -73.4536359291
                      -73.4427097951      -73.4412078046      -73.4386922515      -73.4255067105      -73.4010334349
                      -73.3727773016      -73.3565531363      -73.3483577136      -73.3274890371      -73.3071521661
                      -73.2391916028      -73.2242765816      -73.2149502993      -73.1948143925      -73.1872165865
                      -73.1829056492      -73.1297547271      -73.0422582167      -73.0023132203      -72.9894125908
                      -72.9856352743      -72.9637506459      -72.9557361188      -72.9442569437      -72.9391361969
                      -72.9183971349      -72.8761760651      -72.8592157659      -72.8510175096      -72.8400925084
                      -72.8217191508      -72.7327217116      -72.7193602561      -72.7178432918      -72.6979990387
                      -72.6946617806      -72.6824736716      -72.6231264099      -72.5110943159      -72.4971530813
                      -72.4837140134      -72.4394139733      -72.4306183458      -72.3922128708      -72.3743737660
                      -72.3710107874      -72.3639859656      -72.3001371495      -72.2944402594      -72.2784728202
                      -72.2711731001      -72.2656172071      -72.1560289879      -72.1450206045      -72.1408399382
                      -72.1380720076      -72.1178979503      -72.1081426657      -72.0460252315      -71.9224306537
                      -71.9079937482      -71.8839480520      -71.8041402329      -71.8005813856      -71.7452536907
                      -71.7207733323      -71.6683368305      -71.6489642222      -71.6416328959      -71.6126270093
                      -71.5692527795      -71.5541753795      -71.5486922422      -71.4970766252      -71.4814732789
                      -71.4686699213      -71.4294688706      -71.4144417967      -71.3947395797      -71.3746302000
                      -71.2474120167      -71.2352772283      -71.1331975359      -71.0561850777      -71.0472627075
                      -70.9877562743      -70.9396510791      -70.9293742452      -70.8769511830      -70.8766230178
                      -70.8753333297      -70.8618774973      -70.8581562416      -70.7881273290      -70.7838558006
                      -70.7819975448      -70.7799371047      -70.7660555782      -70.7400625907      -70.7230706682
                      -70.6471085915      -70.6409727279      -70.6340820558      -70.6260277557      -70.6131648692
                      -70.6129250286      -70.5242142803      -70.3365220493      -70.1401673818      -69.9147538076
                      -69.6677072867      -67.6120648887      -66.8040904896      -66.2880633313      -66.2771186406
                      -66.2623599166      -66.2618342531      -66.2418687778      -66.2414268984      -66.2007686828
                      -66.1940986473      -66.1850947308      -66.1843361805      -66.1695750927      -66.1692065059
                      -66.1494203590      -66.1489914087      -66.1482563506      -66.0372637558      -66.0261177563
                      -66.0113159290      -66.0108793049      -65.9904020224      -65.9901313750      -62.9303221888
                      -56.6736571682      -49.1333881160       -0.3408236587       -0.3312736718       -0.3181754190
                       -0.3177301835       -0.2999878999       -0.2996243641       -0.2535260873       -0.2476325545
                       -0.2391378463       -0.2386242898       -0.2255395264       -0.2251643718       -0.2075836055
                       -0.2073197870       -0.2071277318       -0.0904892925       -0.0804126844       -0.0671050429
                       -0.0667457383       -0.0487001349       -0.0484287644

 Header:    ********                CIDATA  

 SET   2    H₂O⁺ CI calculation - singlet B1                                                                                    

 MGVN = 1    s =   0.0    sz =   0.0    NELT =   10    NNUC =  4

 NOCSF=  308    NSTAT=  308    EN   =        9.1891509644

 EIGEN-ENERGIES
                      -75.8177104169      -75.7455979730      -75.7252784646      -75.7133149481      -75.7100136444
                      -75.6947316474      -75.6809339512      -75.6800014170      -75.6666986834      -75.6571827953
                      -75.6531817431      -75.6503802142      -75.6500925757      -75.6494832050      -75.6457855019
                      -75.6175088812      -75.6025654475      -75.6007427043      -75.5976546511      -75.5934409133
                      -75.5881131062      -75.5873921764      -75.5638082366      -75.5636990675      -75.5576459550
                      -75.5570182401      -75.5455212770      -75.5398173566      -75.5392146706      -75.5375814003
                      -75.5070793305      -75.5050162281      -75.5011997959      -75.4996134995      -75.4670115998
                      -75.4615800623      -75.4613618082      -75.4518262256      -75.4468266746      -75.4451254853
                      -75.4358623106      -75.4293539775      -75.4140029400      -75.4099414726      -75.3991740810
                      -75.3983715843      -75.3858947899      -75.3804309111      -75.3794594520      -75.3768182929
                      -75.3716090254      -75.3679744185      -75.3481055660      -75.3404988362      -75.3052432799
                      -75.3024380399      -75.2916206439      -75.2885751126      -75.2870790332      -75.2866708763
                      -75.2841652920      -75.2839329878      -75.2763197727      -75.2314200833      -75.2135433722
                      -75.2128355014      -75.1892864198      -75.1840358330      -75.1793964034      -75.1741211316
                      -75.1724704879      -75.1682153180      -75.1450185674      -75.1310842572      -75.1289424960
                      -75.1260227805      -75.0850082679      -75.0803900674      -75.0761270902      -75.0723819736
                      -75.0462015249      -75.0435376164      -75.0298377719      -74.9837801255      -74.9637490923
                      -74.9604775570      -74.9530673711      -74.9420009731      -74.9244016042      -74.9226874860
                      -74.9222587175      -74.9201323280      -74.9182580842      -74.9143409842      -74.8754639407
                      -74.8318830267      -74.8280180369      -74.8221824681      -74.8034459485      -74.8008654188
                      -74.7707276078      -74.7478594197      -74.6966170718      -74.6901419153      -74.6869214185
                      -74.6772363694      -74.6702965092      -74.6651709779      -74.6617524100      -74.6265537342
                      -74.6233299815      -74.6223793881      -74.6152041935      -74.5753699270      -74.5326304246
                      -74.5306145962      -74.5274594775      -74.5229378800      -74.4906888388      -74.4509908832
                      -74.4058342644      -74.3980952983      -74.3728077734      -74.3686623435      -74.3665539500
                      -74.3569918786      -74.3535591611      -74.3186912197      -74.2855017184      -74.2801659814
                      -74.2738380586      -74.2707354241      -74.2322828276      -74.2093448954      -74.1883707869
                      -74.1863170794      -74.1784578253      -74.1334390809      -74.0871541083      -74.0631286170
                      -74.0298975343      -74.0229356833      -74.0098867796      -74.0057743674      -73.9925777462
                      -73.9711520532      -73.9309646102      -73.8984044706      -73.8915051290      -73.8807229712
                      -73.8764109950      -73.8475561394      -73.8457945041      -73.7995436963      -73.7934360260
                      -73.7878661332      -73.7304547011      -73.6814529370      -73.6783074408      -73.6404766985
                      -73.6331932611      -73.5979357369      -73.5839225738      -73.5703515424      -73.5436236333
                      -73.4989234626      -73.4613949270      -73.4530920230      -73.4412987730      -73.4393291764
                      -73.4319464126      -73.4169981213      -73.3608304620      -73.3531051943      -73.3481702508
                      -73.2800803273      -73.2545470088      -73.2246826014      -73.2011845123      -73.1941378202
                      -73.1436524723      -73.1292920811      -73.0825033721      -73.0675815432      -73.0192710484
                      -72.9853615140      -72.9651417073      -72.9556602785      -72.9480934112      -72.9432614667
                      -72.9297522150      -72.8631078510      -72.8621544310      -72.8508773192      -72.7821281962
                      -72.7757638486      -72.7184188497      -72.7031831764      -72.6968943813      -72.6370021988
                      -72.6225390419      -72.5410865098      -72.5270697633      -72.4792595132      -72.4777900375
                      -72.4139404452      -72.3849359538      -72.3743409324      -72.3689290036      -72.3641101408
                      -72.3090037149      -72.2815976456      -72.2710725402      -72.2492414404      -72.2016026783
                      -72.1415658433      -72.1218624083      -72.1166802951      -72.0596471687      -72.0452548326
                      -71.9114378132      -71.9027710448      -71.8892011305      -71.8301972084      -71.7857721230
                      -71.7119365967      -71.6600904124      -71.6587335508      -71.6491188469      -71.6416386438
                      -71.6205850338      -71.5561868476      -71.5485729484      -71.5222145048      -71.4695196033
                      -71.3971246861      -71.3933303208      -71.3854312056      -71.3736468758      -71.2290955692
                      -71.1649454989      -71.1369289495      -71.0404649478      -71.0310082653      -70.9703268370
                      -70.8987687207      -70.8805434175      -70.8771584833      -70.8754051334      -70.8724318945
                      -70.8674949298      -70.8583691767      -70.7839044795      -70.7818769448      -70.7686793032
                      -70.7656844144      -70.7562018844      -70.7282987246      -70.6266855154      -70.6239323588
                      -70.6226315525      -70.6089993755      -70.4687671426      -70.4541872241      -70.0754286287
                      -69.7964793771      -66.9414441881      -66.2937257289      -66.2864179477      -66.2776893015
                      -66.2769219043      -66.2619875986      -66.2618213859      -66.2420410088      -66.2414278318
                      -66.2407495197      -66.1951454787      -66.1845549888      -66.1696319164      -66.1692698262
                      -66.1493623794      -66.1489534697      -66.0266036427      -66.0109095103      -65.9908346615
                      -65.9902641654      -62.8447338024      -56.8544711920      -49.2997489444       -0.3464638964
                       -0.3399178750       -0.3318342443       -0.3310988969       -0.3179832422       -0.3177286689
                       -0.3001448543       -0.2997726340       -0.2996239662       -0.2479760526       -0.2386805724
                       -0.2254711321       -0.2251695642       -0.2074764627       -0.2071433289       -0.0807733378
                       -0.0667597719       -0.0489442643       -0.0484447426
 CI data stored as set number  3

 SET   3    H₂O⁺ CI calculation - singlet B2                                                                                    

 MGVN = 2    s =   0.0    sz =   0.0    NELT =   10    NNUC =  4

 Nuclear data     X         Y         Z       Charge
   O  1        0.000000  0.000000 -0.124014  8.000000
   H  2        0.000000  1.431150  0.984096  1.000000
   H  2        0.000000 -1.431150  0.984096  1.000000
   sc 3        0.000000  0.000000  0.000000  0.000000

 NOCSF=  308    NSTAT=  308    EN   =        9.1891509644

 NTGSYM=   3
  I   MCONT  NOTGT
  1      2     97
  2      3     63
  3      0    148

 EIGEN-ENERGIES
                      -75.7123797260      -75.6805966806      -75.6655339108      -75.6603380946      -75.6503646774
                      -75.6498503245      -75.6211839989      -75.6092462149      -75.5994236709      -75.5886665526
                      -75.5878165965      -75.5731134323      -75.5686700456      -75.5579890937      -75.5573518874
                      -75.5532119624      -75.5397213006      -75.5385361767      -75.5138204747      -75.5089470012
                      -75.5058510890      -75.4930495925      -75.4748238873      -75.4714410715      -75.4639722482
                      -75.4623743722      -75.4579843464      -75.4478936976      -75.4460079412      -75.4424984782
                      -75.4300135143      -75.4283206758      -75.4149125777      -75.4042904222      -75.3992324497
                      -75.3988284819      -75.3977250696      -75.3973400753      -75.3951118978      -75.3802504729
                      -75.3785005213      -75.3752247785      -75.3712900198      -75.3603983711      -75.3504265412
                      -75.3451878569      -75.3407048981      -75.3212500249      -75.3068995585      -75.2926269300
                      -75.2889543120      -75.2889089679      -75.2878949427      -75.2856968313      -75.2849896409
                      -75.2813318931      -75.2494243543      -75.2171589781      -75.2078440490      -75.1973062195
                      -75.1947920345      -75.1891122244      -75.1825161223      -75.1733510626      -75.1707576587
                      -75.1669479766      -75.1503141879      -75.1326494726      -75.1298241204      -75.1279234250
                      -75.1232489702      -75.1137851535      -75.0836008946      -75.0783316128      -75.0531980367
                      -75.0525864193      -75.0346358480      -75.0226049995      -74.9779230017      -74.9687718116
                      -74.9608328230      -74.9595306955      -74.9461732676      -74.9255503410      -74.9242418679
                      -74.9215584692      -74.9208522582      -74.9178695242      -74.9144733325      -74.9143185068
                      -74.8585080892      -74.8328256890      -74.8253193222      -74.8199328005      -74.7941493996
                      -74.7916309770      -74.7797555754      -74.7268926194      -74.7071017963      -74.6978871437
                      -74.6875900119      -74.6731651811      -74.6694189968      -74.6686960205      -74.6596950797
                      -74.6562889546      -74.6266860706      -74.6227414645      -74.6196738471      -74.5545140601
                      -74.5499675828      -74.5372677517      -74.5272075769      -74.5158882670      -74.4983685642
                      -74.4621652190      -74.4319333746      -74.4100000716      -74.3821992166      -74.3771695732
                      -74.3710376066      -74.3699798259      -74.3651317364      -74.3597421433      -74.3195249119
                      -74.2891218244      -74.2804784165      -74.2764579996      -74.2367701195      -74.2040407623
                      -74.1969461748      -74.1958941539      -74.1840061422      -74.1542804018      -74.1001472184
                      -74.0926620928      -74.0674165157      -74.0361665130      -74.0283207168      -74.0216028383
                      -74.0147462951      -74.0130462023      -74.0080437619      -73.9377022324      -73.9047510701
                      -73.8914789969      -73.8870519953      -73.8786597993      -73.8318193309      -73.8106460391
                      -73.8083085007      -73.7947872496      -73.7630166216      -73.7094733035      -73.6930232918
                      -73.6798788951      -73.6488603439      -73.6394259044      -73.6238699762      -73.6163666908
                      -73.6129394220      -73.6014421241      -73.5112978732      -73.4765119482      -73.4722278849
                      -73.4524536262      -73.4481279486      -73.4234118909      -73.3744441468      -73.3668694065
                      -73.3561082577      -73.3248016281      -73.2813779278      -73.2472499021      -73.2396675081
                      -73.2115333721      -73.2008529750      -73.1842708577      -73.1673008603      -73.1620728520
                      -73.1484265853      -73.0382173644      -73.0243651704      -72.9940398124      -72.9689665148
                      -72.9545325919      -72.9507452014      -72.8794709007      -72.8753905197      -72.8589464453
                      -72.8378432788      -72.8052145003      -72.7660950030      -72.7340981592      -72.7150625619
                      -72.7034945330      -72.6873645975      -72.6678854760      -72.6577455037      -72.6429221275
                      -72.5214717035      -72.5060499139      -72.4621660512      -72.4562458349      -72.3730091967
                      -72.3700903487      -72.3245120843      -72.2975269953      -72.2928251949      -72.2782908827
                      -72.2680019506      -72.2229061617      -72.1578807272      -72.1347839555      -72.1225694946
                      -72.1083945879      -72.1042483698      -72.0829963897      -72.0666892942      -71.9473537127
                      -71.8844584291      -71.8793600097      -71.8268275670      -71.6731502078      -71.6562156819
                      -71.6480044390      -71.6459358435      -71.6337391696      -71.5743048665      -71.5724067388
                      -71.5542948397      -71.4834716757      -71.4472355289      -71.4100726567      -71.4073480512
                      -71.3979122894      -71.3927925066      -71.3872234405      -71.2703621388      -71.2124189949
                      -71.1299370854      -71.0900282117      -70.9064332542      -70.9026211762      -70.8824573834
                      -70.8768816903      -70.8752549906      -70.8616110140      -70.7911544763      -70.7840256334
                      -70.7835105486      -70.7736222780      -70.7714735760      -70.7175373824      -70.7133100757
                      -70.6813198594      -70.6310466006      -70.6259918590      -70.6239746725      -70.6205638561
                      -70.6049734418      -70.4977270229      -70.4740051289      -70.1967325580      -70.1301836074
                      -69.4876617679      -67.7741286254      -66.6681903013      -66.2776621294      -66.2621353531
                      -66.2420358557      -66.2416711084      -66.1952496316      -66.1847786423      -66.1698561630
                      -66.1694524593      -66.1493879069      -66.1489178814      -66.0431681699      -66.0349735134
                      -66.0266342799      -66.0254911599      -66.0109201667      -66.0103778396      -65.9908571873
                      -65.9898476214      -65.9893948102      -56.5232569740      -48.9452699787       -0.3318476087
                       -0.3179816781       -0.3001493033       -0.2998299228       -0.2485553858       -0.2390710554
                       -0.2256475321       -0.2253511245       -0.2075744839       -0.2072776677       -0.0959117759
                       -0.0884346632       -0.0807754414       -0.0797015106       -0.0668891165       -0.0663183441
                       -0.0489523069       -0.0484925777       -0.0480820276
